,Time Stamp,Recipient(SchemaGenerator.java)
"C:\Users\UCD\Desktop\Reports-senttoMel\After_stage_transfer\Evolution\Recipient\SchemaGenerator\6a28fdac6516e05a5821f8057685d425ada76e85May 10, 2012.java",10-May-12,0.968235294
"C:\Users\UCD\Desktop\Reports-senttoMel\After_stage_transfer\Evolution\Recipient\SchemaGenerator\41380834330c9425d3a65b3e65286841f051d4d6May 14, 2012.java",14-May-12,0.968235294
"C:\Users\UCD\Desktop\Reports-senttoMel\After_stage_transfer\Evolution\Recipient\SchemaGenerator\2738d4f7f55f117f3d06d78eda240076a516f7b1May 16, 2012.java",16-May-12,0.968235294
"C:\Users\UCD\Desktop\Reports-senttoMel\After_stage_transfer\Evolution\Recipient\SchemaGenerator\fedb92365c9e5a51379b60fa3492ff386bd0bd9eMay 24, 2012.java",24-May-12,0.968235294
"C:\Users\UCD\Desktop\Reports-senttoMel\After_stage_transfer\Evolution\Recipient\SchemaGenerator\ce5939ead04905705adfced9fb4b32dde689d290May 29, 2012.java",29-May-12,0.968235294
"C:\Users\UCD\Desktop\Reports-senttoMel\After_stage_transfer\Evolution\Recipient\SchemaGenerator\768ebcc59d456ee94e020a88e4413ba95471452eMay 31, 2012.java",31-May-12,0.968235294
"C:\Users\UCD\Desktop\Reports-senttoMel\After_stage_transfer\Evolution\Recipient\SchemaGenerator\8cc7c9a86bd5d311ac17959892eb78972941045bJun 4, 2012.java",04-Jun-12,0.968235294
"C:\Users\UCD\Desktop\Reports-senttoMel\After_stage_transfer\Evolution\Recipient\SchemaGenerator\e16337ec0b0676f0997bada65476f57743a5ca96Sep 4, 2012.java",04-Sep-12,0.968858131
"C:\Users\UCD\Desktop\Reports-senttoMel\After_stage_transfer\Evolution\Recipient\SchemaGenerator\411181aa8f79c4486ccc12f582f9248d4c088d53Oct 22, 2012.java",22-Oct-12,0.968858131
"C:\Users\UCD\Desktop\Reports-senttoMel\After_stage_transfer\Evolution\Recipient\SchemaGenerator\834f7e9c38e237d574b6cfc3a0684d6e300418abDec 3, 2012.java",03-Dec-12,0.96828143
"C:\Users\UCD\Desktop\Reports-senttoMel\After_stage_transfer\Evolution\Recipient\SchemaGenerator\b5a9412e73de7862aa7831a45f559f1c3f529ad5Dec 7, 2012.java",07-Dec-12,0.96828143
"C:\Users\UCD\Desktop\Reports-senttoMel\After_stage_transfer\Evolution\Recipient\SchemaGenerator\87462f5797a5362d6c4885c34f36a8e8ca0ddfe8Dec 12, 2012.java",12-Dec-12,0.96828143
"C:\Users\UCD\Desktop\Reports-senttoMel\After_stage_transfer\Evolution\Recipient\SchemaGenerator\05d368fbaace7ca34a7abf275367d8339609d573Dec 24, 2012.java",24-Dec-12,0.96828143
"C:\Users\UCD\Desktop\Reports-senttoMel\After_stage_transfer\Evolution\Recipient\SchemaGenerator\472f599ede21c35b80407729ce977fd56a55ee26Jan 31, 2013.java",31-Jan-13,0.96828143
"C:\Users\UCD\Desktop\Reports-senttoMel\After_stage_transfer\Evolution\Recipient\SchemaGenerator\ce4cd8c8fcf829357f2066ad005569fd5a48278eFeb 11, 2013.java",11-Feb-13,0.969434833
"C:\Users\UCD\Desktop\Reports-senttoMel\After_stage_transfer\Evolution\Recipient\SchemaGenerator\cad75a808e796184ca6f224e6215f96445461d63Mar 1, 2013.java",01-Mar-13,0.969434833
"C:\Users\UCD\Desktop\Reports-senttoMel\After_stage_transfer\Evolution\Recipient\SchemaGenerator\50f325268c1b443e0eacca9b05b7b6c5327c9bafMar 1, 2013.java",01-Mar-13,0.969434833
"C:\Users\UCD\Desktop\Reports-senttoMel\After_stage_transfer\Evolution\Recipient\SchemaGenerator\3bb7011f07be8c85a4ee4879ceb1e99709fad771Mar 21, 2013.java",21-Mar-13,0.969434833
"C:\Users\UCD\Desktop\Reports-senttoMel\After_stage_transfer\Evolution\Recipient\SchemaGenerator\b95c3699d969d4d0fab71cf6a6cfb6f493b698f8May 17, 2013.java",17-May-13,0.969434833
"C:\Users\UCD\Desktop\Reports-senttoMel\After_stage_transfer\Evolution\Recipient\SchemaGenerator\cd572d4a271df8bfdf74c2a331f7b01e01dd2dd0Jun 14, 2013.java",14-Jun-13,0.969434833
"C:\Users\UCD\Desktop\Reports-senttoMel\After_stage_transfer\Evolution\Recipient\SchemaGenerator\4e00078fd87643814b78d8f774b65892c2944a42Jun 27, 2013.java",27-Jun-13,0.968823529
"C:\Users\UCD\Desktop\Reports-senttoMel\After_stage_transfer\Evolution\Recipient\SchemaGenerator\bd6dfe0b88ac10add87d6c52485d9eedd56e6977Aug 8, 2013.java",08-Aug-13,0.968823529
"C:\Users\UCD\Desktop\Reports-senttoMel\After_stage_transfer\Evolution\Recipient\SchemaGenerator\a0599da5817ea1881b8efe408ec2a72b3f0fd36eJan 6, 2014.java",06-Jan-14,0.968235294
"C:\Users\UCD\Desktop\Reports-senttoMel\After_stage_transfer\Evolution\Recipient\SchemaGenerator\520c45010a3fdc5350ee781f0fa45dd7fc4a3705Apr 23, 2014.java",23-Apr-14,0.968235294
"C:\Users\UCD\Desktop\Reports-senttoMel\After_stage_transfer\Evolution\Recipient\SchemaGenerator\d9f3d286a4c85876983b97a76640101d13b9c950Jul 9, 2014.java",09-Jul-14,0.976320583
"C:\Users\UCD\Desktop\Reports-senttoMel\After_stage_transfer\Evolution\Recipient\SchemaGenerator\296a69fe1d7b6ff5b50abb9a2dd2464436b7bf94Aug 7, 2014.java",07-Aug-14,0.977430556
"C:\Users\UCD\Desktop\Reports-senttoMel\After_stage_transfer\Evolution\Recipient\SchemaGenerator\a01407165ef9f85471d196790b35376144066123Aug 29, 2014.java",29-Aug-14,0.977430556
"C:\Users\UCD\Desktop\Reports-senttoMel\After_stage_transfer\Evolution\Recipient\SchemaGenerator\8ea9ea1e6e078eaedd3c9e301feb30b05e6cc964Nov 21, 2014.java",21-Nov-14,0.977430556
"C:\Users\UCD\Desktop\Reports-senttoMel\After_stage_transfer\Evolution\Recipient\SchemaGenerator\f0158eec29a6ead1a11776337fe168f22b561b48Dec 15, 2014.java",15-Dec-14,0.977430556
"C:\Users\UCD\Desktop\Reports-senttoMel\After_stage_transfer\Evolution\Recipient\SchemaGenerator\5c2d2b3d5be8645f79f1f9e3dc4af37d9cc18ffcJan 22, 2015.java",22-Jan-15,0.977142857
"C:\Users\UCD\Desktop\Reports-senttoMel\After_stage_transfer\Evolution\Recipient\SchemaGenerator\cca51502b357cdf82925413b82d926f8fe86e3d0Apr 24, 2015.java",24-Apr-15,0.977142857
"C:\Users\UCD\Desktop\Reports-senttoMel\After_stage_transfer\Evolution\Recipient\SchemaGenerator\3d7960ad95864ca0b7dd504c7926d022c8325bf5Apr 29, 2015.java",29-Apr-15,0.977142857
"C:\Users\UCD\Desktop\Reports-senttoMel\After_stage_transfer\Evolution\Recipient\SchemaGenerator\a6f465da3d95130106cc0427e548c36be087996eMay 2, 2015.java",02-May-15,0.977142857
"C:\Users\UCD\Desktop\Reports-senttoMel\After_stage_transfer\Evolution\Recipient\SchemaGenerator\475b239a75a6366e8b40b38dc724d590b04f28d3Dec 14, 2015.java",14-Dec-15,0.977142857
"C:\Users\UCD\Desktop\Reports-senttoMel\After_stage_transfer\Evolution\Recipient\SchemaGenerator\85a7dbf865cdfc5fa76cee1ded86a6f24c5f6a94Jan 6, 2016.java",06-Jan-16,0.977142857
