,Time Stamp,Recipient(AnalystWorker.java)
"C:\Users\UCD\Desktop\Reports-senttoMel\After_stage_transfer\Evolution\Recipient\AnalystWorker\3481b348e3e0791eadaa71a180c107c7dd707e6aApr 10, 2018.java",10-Apr-18,0.964516129
"C:\Users\UCD\Desktop\Reports-senttoMel\After_stage_transfer\Evolution\Recipient\AnalystWorker\dacbb69c85f40a507d8f7650f0560b5dc8f5b805Apr 11, 2018.java",11-Apr-18,0.964516129
"C:\Users\UCD\Desktop\Reports-senttoMel\After_stage_transfer\Evolution\Recipient\AnalystWorker\c7cb844baaf193ffb86d805a4cac884ed4689578Apr 24, 2018.java",24-Apr-18,0.964516129
"C:\Users\UCD\Desktop\Reports-senttoMel\After_stage_transfer\Evolution\Recipient\AnalystWorker\d21ecf481d9567655f5e9a200461bc928b168ad7Apr 24, 2018.java",24-Apr-18,0.964516129
"C:\Users\UCD\Desktop\Reports-senttoMel\After_stage_transfer\Evolution\Recipient\AnalystWorker\c9f46e2ff7027c843cd8351744b9f32728944753Apr 24, 2018.java",24-Apr-18,0.964516129
"C:\Users\UCD\Desktop\Reports-senttoMel\After_stage_transfer\Evolution\Recipient\AnalystWorker\9f9c3deabb88da5b5c041d7aa19b63d06883afacMay 5, 2018.java",05-May-18,0.970967742
"C:\Users\UCD\Desktop\Reports-senttoMel\After_stage_transfer\Evolution\Recipient\AnalystWorker\dcf3b43ded3a04ecfacf4c6758ce23e2558f1588May 7, 2018.java",07-May-18,0.970967742
"C:\Users\UCD\Desktop\Reports-senttoMel\After_stage_transfer\Evolution\Recipient\AnalystWorker\06e340ebae68fc0924a705bad722c1426b46cf54May 9, 2018.java",09-May-18,0.970967742
"C:\Users\UCD\Desktop\Reports-senttoMel\After_stage_transfer\Evolution\Recipient\AnalystWorker\1dafc0967fd028f12e6e56c63458b327d5e428d3May 23, 2018.java",23-May-18,0.970967742
"C:\Users\UCD\Desktop\Reports-senttoMel\After_stage_transfer\Evolution\Recipient\AnalystWorker\5168988c1c1cc5a0b2771c417f7fa8345aac9300May 24, 2018.java",24-May-18,0.96875
"C:\Users\UCD\Desktop\Reports-senttoMel\After_stage_transfer\Evolution\Recipient\AnalystWorker\3ea860d99f8ff99af32e14bdfcb69196981b6c49May 24, 2018.java",24-May-18,0.96875
"C:\Users\UCD\Desktop\Reports-senttoMel\After_stage_transfer\Evolution\Recipient\AnalystWorker\9cbd81ab10a8c64b25109628a9fc5ff4b5dc4152Jul 7, 2018.java",07-Jul-18,0.96875
"C:\Users\UCD\Desktop\Reports-senttoMel\After_stage_transfer\Evolution\Recipient\AnalystWorker\26d57cc5126585e28cd2658a580dacf387519f73Jul 11, 2018.java",11-Jul-18,0.96875
"C:\Users\UCD\Desktop\Reports-senttoMel\After_stage_transfer\Evolution\Recipient\AnalystWorker\3d8213bdfbded58ce7a325282fe718f1891db4c6Jul 26, 2018.java",26-Jul-18,0.96875
"C:\Users\UCD\Desktop\Reports-senttoMel\After_stage_transfer\Evolution\Recipient\AnalystWorker\734f710c0acc2e1b74d66327092003cf53bf15c6Oct 23, 2018.java",23-Oct-18,0.96875
"C:\Users\UCD\Desktop\Reports-senttoMel\After_stage_transfer\Evolution\Recipient\AnalystWorker\9c8ae96aec64d5a57c60c4f34b94943d4a82362fOct 29, 2018.java",29-Oct-18,0.979166667
"C:\Users\UCD\Desktop\Reports-senttoMel\After_stage_transfer\Evolution\Recipient\AnalystWorker\3f65ff5b394d45bd6b66bdac5b4e582f13fdc314Oct 30, 2018.java",30-Oct-18,0.958333333
"C:\Users\UCD\Desktop\Reports-senttoMel\After_stage_transfer\Evolution\Recipient\AnalystWorker\ebbde0240de27ec742e563028a6cdf7a95f7a71eOct 30, 2018.java",30-Oct-18,0.958333333
"C:\Users\UCD\Desktop\Reports-senttoMel\After_stage_transfer\Evolution\Recipient\AnalystWorker\be0b567087c86f1e9c4f807014a52ee32dfdad95Nov 5, 2018.java",05-Nov-18,0.958333333
"C:\Users\UCD\Desktop\Reports-senttoMel\After_stage_transfer\Evolution\Recipient\AnalystWorker\be91d30cb196e5561fc480e7d0d88033a963265fNov 12, 2018.java",12-Nov-18,0.957386364
"C:\Users\UCD\Desktop\Reports-senttoMel\After_stage_transfer\Evolution\Recipient\AnalystWorker\48390b152d424460e3cb4df2fdf7770feed0afabNov 12, 2018.java",12-Nov-18,0.958333333
"C:\Users\UCD\Desktop\Reports-senttoMel\After_stage_transfer\Evolution\Recipient\AnalystWorker\b77bfba2291f5e48b3411458b54dc15dbdef294bNov 13, 2018.java",13-Nov-18,0.957386364
"C:\Users\UCD\Desktop\Reports-senttoMel\After_stage_transfer\Evolution\Recipient\AnalystWorker\3a15634cdf36d5e96176e9560f6d958e013c9d21Nov 13, 2018.java",13-Nov-18,0.957386364
"C:\Users\UCD\Desktop\Reports-senttoMel\After_stage_transfer\Evolution\Recipient\AnalystWorker\ce0296d0fd7f96ad6ab911e99d9990f23ffee71fNov 15, 2018.java",15-Nov-18,0.96875
"C:\Users\UCD\Desktop\Reports-senttoMel\After_stage_transfer\Evolution\Recipient\AnalystWorker\d8e9d74d86b4ea418902322d58888563d3da6517Nov 16, 2018.java",16-Nov-18,0.957386364
"C:\Users\UCD\Desktop\Reports-senttoMel\After_stage_transfer\Evolution\Recipient\AnalystWorker\56424606ed877ebcc157e63ee1a0ed10eea9835bNov 16, 2018.java",16-Nov-18,0.957386364
"C:\Users\UCD\Desktop\Reports-senttoMel\After_stage_transfer\Evolution\Recipient\AnalystWorker\d7ea82a6100efeacc57b48b940c819fbe953b992Nov 16, 2018.java",16-Nov-18,0.957386364
"C:\Users\UCD\Desktop\Reports-senttoMel\After_stage_transfer\Evolution\Recipient\AnalystWorker\8fd15360da105d99dc489712ac082e4a9613faf9Nov 17, 2018.java",17-Nov-18,0.957386364
"C:\Users\UCD\Desktop\Reports-senttoMel\After_stage_transfer\Evolution\Recipient\AnalystWorker\bb886024a138f7d49f954b16ba148787c2341dcdNov 21, 2018.java",21-Nov-18,0.957386364
"C:\Users\UCD\Desktop\Reports-senttoMel\After_stage_transfer\Evolution\Recipient\AnalystWorker\eb649b1408529c23bf3b74c8691f236feec596deNov 24, 2018.java",24-Nov-18,0.957386364
"C:\Users\UCD\Desktop\Reports-senttoMel\After_stage_transfer\Evolution\Recipient\AnalystWorker\d7b6869fba289571a59044ddb4642608f18c026fNov 27, 2018.java",27-Nov-18,0.951704545
"C:\Users\UCD\Desktop\Reports-senttoMel\After_stage_transfer\Evolution\Recipient\AnalystWorker\8613a22040a3c7145b546a80f41400c5dbffc93dNov 27, 2018.java",27-Nov-18,0.956989247
"C:\Users\UCD\Desktop\Reports-senttoMel\After_stage_transfer\Evolution\Recipient\AnalystWorker\86c618e87ee123fa362ba4225338aff2e2a47cf2Dec 14, 2018.java",14-Dec-18,0.956989247
"C:\Users\UCD\Desktop\Reports-senttoMel\After_stage_transfer\Evolution\Recipient\AnalystWorker\7eb8476ed936aa8f045b463f79fbf62b39dc14a1May 2, 2019.java",02-May-19,0.9609375
"C:\Users\UCD\Desktop\Reports-senttoMel\After_stage_transfer\Evolution\Recipient\AnalystWorker\921be522d19e4ed5b8ce8a1cc94fa38012631973Jun 25, 2019.java",25-Jun-19,0.963541667
