,Time Stamp,Recipient(LobbyController.java)
"C:\Users\UCD\Desktop\Reports-senttoMel\After_stage_transfer\Evolution\Recipient\LobbyController\3c1ccdd1bc5ac2337951f19d2b40062a57b6cbecApr 20, 2015.java",20-Apr-15,0.666666667
"C:\Users\UCD\Desktop\Reports-senttoMel\After_stage_transfer\Evolution\Recipient\LobbyController\584cd30376dc64107172effb65d223613ef7f9a1Apr 20, 2015.java",20-Apr-15,0.625
"C:\Users\UCD\Desktop\Reports-senttoMel\After_stage_transfer\Evolution\Recipient\LobbyController\dac42d39f63e65d941591adee647d33d0b0d52ccApr 21, 2015.java",21-Apr-15,0.714285714
"C:\Users\UCD\Desktop\Reports-senttoMel\After_stage_transfer\Evolution\Recipient\LobbyController\a19970f2fadb83314f3c9109b284e9db190fcf43Apr 22, 2015.java",22-Apr-15,0.714285714
"C:\Users\UCD\Desktop\Reports-senttoMel\After_stage_transfer\Evolution\Recipient\LobbyController\0490a1cb7e4c95750dd10844ae3c418ce8f7ecebApr 22, 2015.java",22-Apr-15,0.714285714
"C:\Users\UCD\Desktop\Reports-senttoMel\After_stage_transfer\Evolution\Recipient\LobbyController\c4d21b5d1a0ea1b723a5d5ae44dcfb7b5f19d01bApr 24, 2015.java",24-Apr-15,0.722222222
"C:\Users\UCD\Desktop\Reports-senttoMel\After_stage_transfer\Evolution\Recipient\LobbyController\849780de6d55be7fc04ea92f5d9b51477b1f0376Apr 24, 2015.java",24-Apr-15,0.722222222
"C:\Users\UCD\Desktop\Reports-senttoMel\After_stage_transfer\Evolution\Recipient\LobbyController\5cd8351e12fb090adde6cfe7a43205b42391c5deApr 24, 2015.java",24-Apr-15,0.722222222
"C:\Users\UCD\Desktop\Reports-senttoMel\After_stage_transfer\Evolution\Recipient\LobbyController\969b950668aea6dd4b7e0a378148c859395e02eaApr 24, 2015.java",24-Apr-15,0.722222222
"C:\Users\UCD\Desktop\Reports-senttoMel\After_stage_transfer\Evolution\Recipient\LobbyController\593bd38ae347644df4a4fc4f2c683d8d85ebbd73Apr 29, 2015.java",29-Apr-15,0.714285714
"C:\Users\UCD\Desktop\Reports-senttoMel\After_stage_transfer\Evolution\Recipient\LobbyController\33223233b967fb4a74fadf96f986fafbb6ac5379Apr 29, 2015.java",29-Apr-15,0.611111111
"C:\Users\UCD\Desktop\Reports-senttoMel\After_stage_transfer\Evolution\Recipient\LobbyController\6ac05a0e3a257183935516ae31c4170d6f8d09eeApr 29, 2015.java",29-Apr-15,0.722222222
"C:\Users\UCD\Desktop\Reports-senttoMel\After_stage_transfer\Evolution\Recipient\LobbyController\f1a699791e3006739937db34892cd61f34b12c2eApr 30, 2015.java",30-Apr-15,0.611111111
"C:\Users\UCD\Desktop\Reports-senttoMel\After_stage_transfer\Evolution\Recipient\LobbyController\0b99061a873596803204b5a03afd3c43426486baApr 30, 2015.java",30-Apr-15,0.611111111
"C:\Users\UCD\Desktop\Reports-senttoMel\After_stage_transfer\Evolution\Recipient\LobbyController\e6862a98ccbbcce3517c498762cfb959baf3c3beMay 1, 2015.java",01-May-15,0.681818182
"C:\Users\UCD\Desktop\Reports-senttoMel\After_stage_transfer\Evolution\Recipient\LobbyController\2fcaf6f5253ef177bf3c9f11187e3269aaf29da9May 2, 2015.java",02-May-15,0.666666667
"C:\Users\UCD\Desktop\Reports-senttoMel\After_stage_transfer\Evolution\Recipient\LobbyController\8c2027dfde16db7fa5ddf06fab0e8c3eab473259May 4, 2015.java",04-May-15,0.653846154
"C:\Users\UCD\Desktop\Reports-senttoMel\After_stage_transfer\Evolution\Recipient\LobbyController\263ce8028219ce66e0486e042f49f7870d5e4e71May 4, 2015.java",04-May-15,0.666666667
"C:\Users\UCD\Desktop\Reports-senttoMel\After_stage_transfer\Evolution\Recipient\LobbyController\5b345dc293909a0e61db50673a79bdc1c7b89733May 5, 2015.java",05-May-15,0.65625
"C:\Users\UCD\Desktop\Reports-senttoMel\After_stage_transfer\Evolution\Recipient\LobbyController\44fd36f792bfb213c64ad338befcc27879e516e1May 20, 2015.java",20-May-15,0.678571429
