,Time Stamp,Non-Recipient(RecordActivity.java)
"C:\Users\UCD\Desktop\Reports-senttoMel\After_stage_transfer\Evolution\Non-recipient\RecordActivity\ff807445e4e606a16610085cf67528d5055e2b3cDec 18, 2015.java",18-Dec-15,0
"C:\Users\UCD\Desktop\Reports-senttoMel\After_stage_transfer\Evolution\Non-recipient\RecordActivity\ddf2b48da65054d5ccfefacb71f55f89f3906bb9Dec 28, 2015.java",28-Dec-15,0
"C:\Users\UCD\Desktop\Reports-senttoMel\After_stage_transfer\Evolution\Non-recipient\RecordActivity\2de12c8fbf561951598ab659acca72e0957474ddOct 2, 2018.java",02-Oct-18,0.333333333
