,Time Stamp,Recipient(WebServerDropwizard.java)
"C:\Users\UCD\Desktop\Reports-senttoMel\After_stage_transfer\Evolution\Recipient\WebServerDropwizard\f3cdb32aabe6290a1663b3397b2ca7b497a94781Dec 20, 2015.java",20-Dec-15,0.142857143
"C:\Users\UCD\Desktop\Reports-senttoMel\After_stage_transfer\Evolution\Recipient\WebServerDropwizard\d82e4ecc5284e24c9e73b298be2a4489e62c1c45Jan 10, 2016.java",10-Jan-16,0.142857143
"C:\Users\UCD\Desktop\Reports-senttoMel\After_stage_transfer\Evolution\Recipient\WebServerDropwizard\f1d5c8a268d2c613bd4d06719b43a7ca1ff1b522Jan 13, 2016.java",13-Jan-16,0.142857143
"C:\Users\UCD\Desktop\Reports-senttoMel\After_stage_transfer\Evolution\Recipient\WebServerDropwizard\e522e818046910279a47f84251c7831c73fe3da8Oct 5, 2017.java",05-Oct-17,0.142857143
"C:\Users\UCD\Desktop\Reports-senttoMel\After_stage_transfer\Evolution\Recipient\WebServerDropwizard\8738ecc9466c2eee94775769c2bd98646c33c4bbOct 13, 2017.java",13-Oct-17,0.1
"C:\Users\UCD\Desktop\Reports-senttoMel\After_stage_transfer\Evolution\Recipient\WebServerDropwizard\c9375d2b45dfecdf881ce5731ed3b1493564cb76Apr 4, 2018.java",04-Apr-18,0.1
"C:\Users\UCD\Desktop\Reports-senttoMel\After_stage_transfer\Evolution\Recipient\WebServerDropwizard\2e9bb0fe3c79729b004ea95f6c219ea6098f61bdMay 13, 2018.java",13-May-18,0.1
