,Time Stamp,Recipient(SkeletonFragment.java)
"C:\Users\UCD\Desktop\Reports-senttoMel\After_stage_transfer\Evolution\Recipient\SkeletonFragment\d828eba2900434d2297c9f2ad6176b78f3d9334cMar 5, 2015.java",05-Mar-15,0.8
"C:\Users\UCD\Desktop\Reports-senttoMel\After_stage_transfer\Evolution\Recipient\SkeletonFragment\525aec21c79caa716952937cdee9aab00063f1e1Apr 22, 2015.java",22-Apr-15,0.8
"C:\Users\UCD\Desktop\Reports-senttoMel\After_stage_transfer\Evolution\Recipient\SkeletonFragment\29e2404e1f437c4921dbcc4e75064a1354010915Jun 17, 2015.java",17-Jun-15,0.785714286
"C:\Users\UCD\Desktop\Reports-senttoMel\After_stage_transfer\Evolution\Recipient\SkeletonFragment\9cfac8e7a6868a2744d61c9b63fbd4883e9cbaa4Jun 17, 2015.java",17-Jun-15,0.833333333
"C:\Users\UCD\Desktop\Reports-senttoMel\After_stage_transfer\Evolution\Recipient\SkeletonFragment\6d6255c317ddad69cec4e5095f3c44b386b7b7a3Jun 26, 2015.java",26-Jun-15,0.785714286
"C:\Users\UCD\Desktop\Reports-senttoMel\After_stage_transfer\Evolution\Recipient\SkeletonFragment\61f14b8762f17310363e27b4852a9a837677f4c0Jun 26, 2015.java",26-Jun-15,0.785714286
"C:\Users\UCD\Desktop\Reports-senttoMel\After_stage_transfer\Evolution\Recipient\SkeletonFragment\eae9b03743fc33a64d9f4b23d06c88ffa6188d4fJul 13, 2015.java",13-Jul-15,0.833333333
"C:\Users\UCD\Desktop\Reports-senttoMel\After_stage_transfer\Evolution\Recipient\SkeletonFragment\65381edd05565b3d9c41a65cff3c15bf4704b191Jul 15, 2015.java",15-Jul-15,0.8
"C:\Users\UCD\Desktop\Reports-senttoMel\After_stage_transfer\Evolution\Recipient\SkeletonFragment\db5b190c088e6f8cad4d02e67f50c5280bd4ae38Jul 16, 2015.java",16-Jul-15,0.8
"C:\Users\UCD\Desktop\Reports-senttoMel\After_stage_transfer\Evolution\Recipient\SkeletonFragment\bcf8238eaecac6120294919d53492ab6fbe3504bOct 14, 2015.java",14-Oct-15,0.8
"C:\Users\UCD\Desktop\Reports-senttoMel\After_stage_transfer\Evolution\Recipient\SkeletonFragment\6bb8f1301792088296c58f139f97fbc408625ceeJan 12, 2016.java",12-Jan-16,0.818181818
"C:\Users\UCD\Desktop\Reports-senttoMel\After_stage_transfer\Evolution\Recipient\SkeletonFragment\440d50735c48271c86c9c5e3f0b51d0589a200b8Jan 26, 2016.java",26-Jan-16,0.833333333
"C:\Users\UCD\Desktop\Reports-senttoMel\After_stage_transfer\Evolution\Recipient\SkeletonFragment\99a0fa7084ceed72a68425a54bc0c86493db0084Apr 22, 2016.java",22-Apr-16,0.833333333
"C:\Users\UCD\Desktop\Reports-senttoMel\After_stage_transfer\Evolution\Recipient\SkeletonFragment\52e8874b6e5c22218589096df0b6099b5f66626dMay 20, 2016.java",20-May-16,0.7
"C:\Users\UCD\Desktop\Reports-senttoMel\After_stage_transfer\Evolution\Recipient\SkeletonFragment\378791e9758aa83675b4d499af50d551e961f09dJun 6, 2016.java",06-Jun-16,0.7
"C:\Users\UCD\Desktop\Reports-senttoMel\After_stage_transfer\Evolution\Recipient\SkeletonFragment\e1651fd789331880662a06f1bbba6021358277aeJun 12, 2017.java",12-Jun-17,0.727272727
"C:\Users\UCD\Desktop\Reports-senttoMel\After_stage_transfer\Evolution\Recipient\SkeletonFragment\bd6c91c98fa22931b6d7980e65ae3c1f303b3946Jun 26, 2017.java",26-Jun-17,0.636363636
