,Time Stamp,Non-Recipient(ESPushTask.java)
"C:\Users\UCD\Desktop\Reports-senttoMel\After_stage_transfer\Evolution\Non-recipient\ESPushTask\8deccf9eb6e26d20e53522471aced91535acb3e3Jul 26, 2015.java",26-Jul-15,0.958333333
"C:\Users\UCD\Desktop\Reports-senttoMel\After_stage_transfer\Evolution\Non-recipient\ESPushTask\5bd5a3760e52190f905880100beee0c2d6a040afJul 26, 2015.java",26-Jul-15,0.958333333
"C:\Users\UCD\Desktop\Reports-senttoMel\After_stage_transfer\Evolution\Non-recipient\ESPushTask\9d0a013c77374c238fce2c8781a0a65059ffd98cJul 26, 2015.java",26-Jul-15,0.958333333
"C:\Users\UCD\Desktop\Reports-senttoMel\After_stage_transfer\Evolution\Non-recipient\ESPushTask\92bc1fbe5e48af44fe4650d48d219313c4d5e241Jul 27, 2015.java",27-Jul-15,0.961352657
"C:\Users\UCD\Desktop\Reports-senttoMel\After_stage_transfer\Evolution\Non-recipient\ESPushTask\505e2adc162917bde69febf6cbdc7fb8b6df8858Jul 27, 2015.java",27-Jul-15,0.961352657
"C:\Users\UCD\Desktop\Reports-senttoMel\After_stage_transfer\Evolution\Non-recipient\ESPushTask\fb37c28afc77214862cdcbaa57361da781aa43b2Jul 27, 2015.java",27-Jul-15,0.961352657
"C:\Users\UCD\Desktop\Reports-senttoMel\After_stage_transfer\Evolution\Non-recipient\ESPushTask\577e5be4bef59797d824cea3b93f769f031913b0Jul 27, 2015.java",27-Jul-15,0.958333333
"C:\Users\UCD\Desktop\Reports-senttoMel\After_stage_transfer\Evolution\Non-recipient\ESPushTask\d3cb603742f06eead5d722bc1f432162eeee9d5fAug 17, 2015.java",17-Aug-15,0.958333333
"C:\Users\UCD\Desktop\Reports-senttoMel\After_stage_transfer\Evolution\Non-recipient\ESPushTask\91bafaab3057eb2ddcdeb59651e626b3264512c1Aug 17, 2015.java",17-Aug-15,0.958333333
"C:\Users\UCD\Desktop\Reports-senttoMel\After_stage_transfer\Evolution\Non-recipient\ESPushTask\3a51a74d5f9955eb00b1d99ea211e3d7877fa965Aug 17, 2015.java",17-Aug-15,0.958333333
"C:\Users\UCD\Desktop\Reports-senttoMel\After_stage_transfer\Evolution\Non-recipient\ESPushTask\6ceaa464853c19931d8729ab3d8a8289eefbca95Aug 17, 2015.java",17-Aug-15,0.958333333
"C:\Users\UCD\Desktop\Reports-senttoMel\After_stage_transfer\Evolution\Non-recipient\ESPushTask\22477569065ff19383590c46328486459329443eAug 26, 2015.java",26-Aug-15,0.958333333
"C:\Users\UCD\Desktop\Reports-senttoMel\After_stage_transfer\Evolution\Non-recipient\ESPushTask\cb1fdf0de2217696c4d644fd09843801a150c77dOct 27, 2015.java",27-Oct-15,0.958333333
"C:\Users\UCD\Desktop\Reports-senttoMel\After_stage_transfer\Evolution\Non-recipient\ESPushTask\d307bc1d28d9c23de28499f86e885953621ce5adJan 27, 2016.java",27-Jan-16,1
"C:\Users\UCD\Desktop\Reports-senttoMel\After_stage_transfer\Evolution\Non-recipient\ESPushTask\80c13a8b964a94dd8dd3a9c810435137c4679f29Jan 27, 2016.java",27-Jan-16,0.958333333
"C:\Users\UCD\Desktop\Reports-senttoMel\After_stage_transfer\Evolution\Non-recipient\ESPushTask\2837a19f49009d94a0502147df93f6aaee2ae2bbJan 28, 2016.java",28-Jan-16,0.933333333
"C:\Users\UCD\Desktop\Reports-senttoMel\After_stage_transfer\Evolution\Non-recipient\ESPushTask\0adf34a4adcdeec900411ebe24f4e13c24ead6d8Jan 28, 2016.java",28-Jan-16,0.895833333
"C:\Users\UCD\Desktop\Reports-senttoMel\After_stage_transfer\Evolution\Non-recipient\ESPushTask\7d0884ffabf587c03cbce3b341506b459db3c571Jan 28, 2016.java",28-Jan-16,0.895833333
"C:\Users\UCD\Desktop\Reports-senttoMel\After_stage_transfer\Evolution\Non-recipient\ESPushTask\5a458de15a6223ee4f34db8d266261171b43775cJan 28, 2016.java",28-Jan-16,0.939393939
"C:\Users\UCD\Desktop\Reports-senttoMel\After_stage_transfer\Evolution\Non-recipient\ESPushTask\ef4c8ef5bfd724aa3647770e9b643bb09e95aa86Jan 28, 2016.java",28-Jan-16,1
"C:\Users\UCD\Desktop\Reports-senttoMel\After_stage_transfer\Evolution\Non-recipient\ESPushTask\3e4fb0a21316556e14b2ea60e01e61cb89c2f06bJan 28, 2016.java",28-Jan-16,0.883333333
"C:\Users\UCD\Desktop\Reports-senttoMel\After_stage_transfer\Evolution\Non-recipient\ESPushTask\de8b88e0a00fba4d0edefd69b302c49a9373d283Jan 28, 2016.java",28-Jan-16,1
"C:\Users\UCD\Desktop\Reports-senttoMel\After_stage_transfer\Evolution\Non-recipient\ESPushTask\93a76dd5ed928026b5cac6667e858dba8a8133c9Feb 1, 2016.java",01-Feb-16,1
"C:\Users\UCD\Desktop\Reports-senttoMel\After_stage_transfer\Evolution\Non-recipient\ESPushTask\6cf4d3f3908141003809b5f88246a20d2b356acdFeb 1, 2016.java",01-Feb-16,1
"C:\Users\UCD\Desktop\Reports-senttoMel\After_stage_transfer\Evolution\Non-recipient\ESPushTask\4af45f925f307b46f6e6923b483f1818575e8c34Feb 2, 2016.java",02-Feb-16,0.969230769
"C:\Users\UCD\Desktop\Reports-senttoMel\After_stage_transfer\Evolution\Non-recipient\ESPushTask\d2a5719aca6482813c81602954884f0fd0144340Feb 2, 2016.java",02-Feb-16,1
"C:\Users\UCD\Desktop\Reports-senttoMel\After_stage_transfer\Evolution\Non-recipient\ESPushTask\86d2e99faf06798d820a932ee99dcedcb023666cFeb 2, 2016.java",02-Feb-16,0.969230769
"C:\Users\UCD\Desktop\Reports-senttoMel\After_stage_transfer\Evolution\Non-recipient\ESPushTask\936efb5b6e37381b859e4d5794e527253943907cFeb 3, 2016.java",03-Feb-16,0.966666667
"C:\Users\UCD\Desktop\Reports-senttoMel\After_stage_transfer\Evolution\Non-recipient\ESPushTask\bc1942d5b524386ea310758ede8b2eaac140c29cFeb 3, 2016.java",03-Feb-16,0.96875
"C:\Users\UCD\Desktop\Reports-senttoMel\After_stage_transfer\Evolution\Non-recipient\ESPushTask\f164bff371680f9a933eb3a8398ee1598da7ade3Feb 3, 2016.java",03-Feb-16,0.948717949
"C:\Users\UCD\Desktop\Reports-senttoMel\After_stage_transfer\Evolution\Non-recipient\ESPushTask\31e7ffbe4f451a7b3f8dcfccfa9535343d2e0805Feb 3, 2016.java",03-Feb-16,1
"C:\Users\UCD\Desktop\Reports-senttoMel\After_stage_transfer\Evolution\Non-recipient\ESPushTask\a1a24f7aa669851fcf1bd551f58a92bdf414c0baFeb 3, 2016.java",03-Feb-16,0.966666667
"C:\Users\UCD\Desktop\Reports-senttoMel\After_stage_transfer\Evolution\Non-recipient\ESPushTask\c2a6c85eb07dc84f691cc1964acb07845122eb13Feb 3, 2016.java",03-Feb-16,1
"C:\Users\UCD\Desktop\Reports-senttoMel\After_stage_transfer\Evolution\Non-recipient\ESPushTask\5cd6d7f87555e0a40b765f28d3d81d257cc031eeFeb 4, 2016.java",04-Feb-16,0.96875
"C:\Users\UCD\Desktop\Reports-senttoMel\After_stage_transfer\Evolution\Non-recipient\ESPushTask\c565e8bcef2928ec07dd4c10e3ff5f64a5912131Feb 4, 2016.java",04-Feb-16,0.970588235
