,Time Stamp,Non-Recipient(MultiPlayer.java)
"C:\Users\UCD\Desktop\Reports-senttoMel\After_stage_transfer\Evolution\Non-recipient\MultiPlayer\87ec9b1b4ed964f679908d36dba146671a4e36f5Sep 22, 2015.java",22-Sep-15,0
"C:\Users\UCD\Desktop\Reports-senttoMel\After_stage_transfer\Evolution\Non-recipient\MultiPlayer\7ef2c2e97a4aaaf941d6a4a56a2e374e3b110be1Sep 23, 2015.java",23-Sep-15,0
"C:\Users\UCD\Desktop\Reports-senttoMel\After_stage_transfer\Evolution\Non-recipient\MultiPlayer\dfdfbaecadfa49e9624ff7c2ced9c5694daecc7aSep 24, 2015.java",24-Sep-15,0
"C:\Users\UCD\Desktop\Reports-senttoMel\After_stage_transfer\Evolution\Non-recipient\MultiPlayer\99b44e3ac66d28ff39dd4dbb15836e1b96f6568eSep 25, 2015.java",25-Sep-15,0
"C:\Users\UCD\Desktop\Reports-senttoMel\After_stage_transfer\Evolution\Non-recipient\MultiPlayer\fa0b1c1cfde94e0302b9af9c38d4cb6c6e47325dSep 25, 2015.java",25-Sep-15,0.083333333
"C:\Users\UCD\Desktop\Reports-senttoMel\After_stage_transfer\Evolution\Non-recipient\MultiPlayer\b23b9ea8c430fb539f7636dd8ba66f1e23ec7cc8Sep 26, 2015.java",26-Sep-15,0.25
"C:\Users\UCD\Desktop\Reports-senttoMel\After_stage_transfer\Evolution\Non-recipient\MultiPlayer\62685eb251aea84c3927c9904fc6536742be9d35Sep 26, 2015.java",26-Sep-15,0.083333333
"C:\Users\UCD\Desktop\Reports-senttoMel\After_stage_transfer\Evolution\Non-recipient\MultiPlayer\237a608e48ad5a4a12fb6fc3e18b3315970d2c84Sep 28, 2015.java",28-Sep-15,0.053571429
"C:\Users\UCD\Desktop\Reports-senttoMel\After_stage_transfer\Evolution\Non-recipient\MultiPlayer\5c11c1b3a06eaee73a188d607af4242bd2d34be4Sep 28, 2015.java",28-Sep-15,0.25
"C:\Users\UCD\Desktop\Reports-senttoMel\After_stage_transfer\Evolution\Non-recipient\MultiPlayer\b927c1e841e0a78d8180050d76e649d1b29fce2cSep 29, 2015.java",29-Sep-15,0.254545455
"C:\Users\UCD\Desktop\Reports-senttoMel\After_stage_transfer\Evolution\Non-recipient\MultiPlayer\cb72e953c539fa0d49ad784054b91b5c105667c0Sep 30, 2015.java",30-Sep-15,0.233333333
"C:\Users\UCD\Desktop\Reports-senttoMel\After_stage_transfer\Evolution\Non-recipient\MultiPlayer\fe1fd06714c37857c695ead4b0b6f7b4407dc69fOct 1, 2015.java",01-Oct-15,0.233333333
"C:\Users\UCD\Desktop\Reports-senttoMel\After_stage_transfer\Evolution\Non-recipient\MultiPlayer\6b572033f9a7d0c3206dc75ae28a1cab83db6d9fOct 1, 2015.java",01-Oct-15,0.159090909
"C:\Users\UCD\Desktop\Reports-senttoMel\After_stage_transfer\Evolution\Non-recipient\MultiPlayer\f639d41f18e543a80446255e6b38e370ed93c66bOct 2, 2015.java",02-Oct-15,0.159090909
"C:\Users\UCD\Desktop\Reports-senttoMel\After_stage_transfer\Evolution\Non-recipient\MultiPlayer\4a8806405fad5dbaf7bb020429d6601d0cc19b5cOct 3, 2015.java",03-Oct-15,0.159090909
