,Time Stamp,Recipient(AnswerPanel.java)
"C:\Users\UCD\Desktop\Reports-senttoMel\After_stage_transfer\Evolution\Recipient\AnswerPanel\5f841a98a080207a0df3f6c690269a878bfe8b3bFeb 26, 2015.java",26-Feb-15,0.888888889
"C:\Users\UCD\Desktop\Reports-senttoMel\After_stage_transfer\Evolution\Recipient\AnswerPanel\150b5b346fff8bad7c5cbff735526910b4346902Feb 26, 2015.java",26-Feb-15,0.866666667
"C:\Users\UCD\Desktop\Reports-senttoMel\After_stage_transfer\Evolution\Recipient\AnswerPanel\7b3889a8187dbecae595f9e02e444b1f08c20245Feb 27, 2015.java",27-Feb-15,0.923076923
"C:\Users\UCD\Desktop\Reports-senttoMel\After_stage_transfer\Evolution\Recipient\AnswerPanel\ebad50db6fa37263bf2831f2dfd9c1c6b610d039Feb 27, 2015.java",27-Feb-15,0.939393939
"C:\Users\UCD\Desktop\Reports-senttoMel\After_stage_transfer\Evolution\Recipient\AnswerPanel\cd3c078c7d7fab417ced6bc237b7856c102f9385Mar 2, 2015.java",02-Mar-15,0.923076923
"C:\Users\UCD\Desktop\Reports-senttoMel\After_stage_transfer\Evolution\Recipient\AnswerPanel\a37e34c2fa0c1bf7c9a0dd53e41c6f9fd6a9b75eMar 2, 2015.java",02-Mar-15,0.923076923
"C:\Users\UCD\Desktop\Reports-senttoMel\After_stage_transfer\Evolution\Recipient\AnswerPanel\a194d0fe03246febe9b853a203c604fe033a013dMar 3, 2015.java",03-Mar-15,0.942307692
"C:\Users\UCD\Desktop\Reports-senttoMel\After_stage_transfer\Evolution\Recipient\AnswerPanel\a82b8077b40bd3f3a251fed0da0d268be642168aMar 4, 2015.java",04-Mar-15,0.942307692
"C:\Users\UCD\Desktop\Reports-senttoMel\After_stage_transfer\Evolution\Recipient\AnswerPanel\860d6481221bc2187727d944aba7c0ccfef1b38eMar 4, 2015.java",04-Mar-15,0.939393939
"C:\Users\UCD\Desktop\Reports-senttoMel\After_stage_transfer\Evolution\Recipient\AnswerPanel\6a4bfecd802757d9ddc0579e8e55d23db1adac9fMar 5, 2015.java",05-Mar-15,0.948051948
"C:\Users\UCD\Desktop\Reports-senttoMel\After_stage_transfer\Evolution\Recipient\AnswerPanel\e604481c42a3f093a3051cb03bab971a1c953756Mar 25, 2015.java",25-Mar-15,0.948051948
"C:\Users\UCD\Desktop\Reports-senttoMel\After_stage_transfer\Evolution\Recipient\AnswerPanel\126269265b0afc0ac099422d73171e2a09190ee4Mar 25, 2015.java",25-Mar-15,0.971428571
"C:\Users\UCD\Desktop\Reports-senttoMel\After_stage_transfer\Evolution\Recipient\AnswerPanel\c01c23d0fd5b42a22b27ca6d93fc9f0e796833f3Apr 4, 2015.java",04-Apr-15,0.948051948
"C:\Users\UCD\Desktop\Reports-senttoMel\After_stage_transfer\Evolution\Recipient\AnswerPanel\6eb834e6840b4b196accbc4b4c908c056433df12Apr 7, 2015.java",07-Apr-15,0.948051948
"C:\Users\UCD\Desktop\Reports-senttoMel\After_stage_transfer\Evolution\Recipient\AnswerPanel\e5acb05fe942411889bf141268c534e5e2ad88ccApr 25, 2015.java",25-Apr-15,0.952380952
"C:\Users\UCD\Desktop\Reports-senttoMel\After_stage_transfer\Evolution\Recipient\AnswerPanel\e2f3dcb71b29ebfcb4a4527988ce853e3506de94Apr 29, 2015.java",29-Apr-15,0.952380952
"C:\Users\UCD\Desktop\Reports-senttoMel\After_stage_transfer\Evolution\Recipient\AnswerPanel\46ad258de159f574693e00f20f84eb52184c2a15Apr 30, 2015.java",30-Apr-15,0.956043956
"C:\Users\UCD\Desktop\Reports-senttoMel\After_stage_transfer\Evolution\Recipient\AnswerPanel\1deed6d08878867f009ab6f4d37806bbc9d4ac6dApr 30, 2015.java",30-Apr-15,0.94047619
"C:\Users\UCD\Desktop\Reports-senttoMel\After_stage_transfer\Evolution\Recipient\AnswerPanel\d5e2c30c08b0175639f6e1639c8479ed2cdc2125May 1, 2015.java",01-May-15,0.956043956
"C:\Users\UCD\Desktop\Reports-senttoMel\After_stage_transfer\Evolution\Recipient\AnswerPanel\a709f117df3958ce0dc424daed43c4fdaf2a9c62May 4, 2015.java",04-May-15,0.956043956
"C:\Users\UCD\Desktop\Reports-senttoMel\After_stage_transfer\Evolution\Recipient\AnswerPanel\37e085c656cbf40f933b01ce40b239c148652fa9May 4, 2015.java",04-May-15,0.956043956
