,Time Stamp,Non-Recipient(CsvDataAdapterHelper.java)
"C:\Users\UCD\Desktop\Reports-senttoMel\After_stage_transfer\Evolution\Non-recipient\CsvDataAdapterHelper\9d2d2e8ce1594200a5f22accdb8f5b21551f5819Dec 3, 2014.java",03-Dec-14,0.875
"C:\Users\UCD\Desktop\Reports-senttoMel\After_stage_transfer\Evolution\Non-recipient\CsvDataAdapterHelper\e81577aed83593fb2837a2831d7924347e889f18Dec 19, 2014.java",19-Dec-14,0.833333333
"C:\Users\UCD\Desktop\Reports-senttoMel\After_stage_transfer\Evolution\Non-recipient\CsvDataAdapterHelper\c2fccaa7a926245cf68a0eb5263739a11e52d0dbMar 29, 2015.java",29-Mar-15,0.857142857
"C:\Users\UCD\Desktop\Reports-senttoMel\After_stage_transfer\Evolution\Non-recipient\CsvDataAdapterHelper\80840e4c2bd4b976d58fc76269ee69b7fbfffdc6Jun 10, 2015.java",10-Jun-15,0.875
"C:\Users\UCD\Desktop\Reports-senttoMel\After_stage_transfer\Evolution\Non-recipient\CsvDataAdapterHelper\7579724192422ceec39976ae6a7dea5fab9cf313Jun 16, 2015.java",16-Jun-15,0.875
"C:\Users\UCD\Desktop\Reports-senttoMel\After_stage_transfer\Evolution\Non-recipient\CsvDataAdapterHelper\088a9fdfd436f8474bda982f94c38609298053ebJun 19, 2015.java",19-Jun-15,0.875
"C:\Users\UCD\Desktop\Reports-senttoMel\After_stage_transfer\Evolution\Non-recipient\CsvDataAdapterHelper\cf4e0b2a631bb916dd7892d2bea68f89256f55d0Jul 15, 2015.java",15-Jul-15,0.916666667
"C:\Users\UCD\Desktop\Reports-senttoMel\After_stage_transfer\Evolution\Non-recipient\CsvDataAdapterHelper\a30d4b1b07f51666a414e3e61dfdb6032400fd3bAug 4, 2015.java",04-Aug-15,0.888888889
"C:\Users\UCD\Desktop\Reports-senttoMel\After_stage_transfer\Evolution\Non-recipient\CsvDataAdapterHelper\86fd04aee3dcfe16bad36a27f7eee5e420ef61d5Aug 22, 2015.java",22-Aug-15,0.9
"C:\Users\UCD\Desktop\Reports-senttoMel\After_stage_transfer\Evolution\Non-recipient\CsvDataAdapterHelper\69496be264de70ec73e3b5cfa7d54a545de7cc1bAug 31, 2015.java",31-Aug-15,0.9
"C:\Users\UCD\Desktop\Reports-senttoMel\After_stage_transfer\Evolution\Non-recipient\CsvDataAdapterHelper\470feb4abe1a56d96620dd856965b7f4e3d768d9Apr 17, 2016.java",17-Apr-16,0.9
"C:\Users\UCD\Desktop\Reports-senttoMel\After_stage_transfer\Evolution\Non-recipient\CsvDataAdapterHelper\9c86076a0c99a122f29118861d678b4e935dcc9aMay 29, 2016.java",29-May-16,0.9
"C:\Users\UCD\Desktop\Reports-senttoMel\After_stage_transfer\Evolution\Non-recipient\CsvDataAdapterHelper\8ce93620e5f825b7b0e833f89cf3784c008c143cJun 19, 2016.java",19-Jun-16,0.9
