,Time Stamp,Recipient(SinglePlayer.java)
"C:\Users\UCD\Desktop\Reports-senttoMel\After_stage_transfer\Evolution\Recipient\SinglePlayer\87ec9b1b4ed964f679908d36dba146671a4e36f5Sep 22, 2015.java",22-Sep-15,1
"C:\Users\UCD\Desktop\Reports-senttoMel\After_stage_transfer\Evolution\Recipient\SinglePlayer\7ef2c2e97a4aaaf941d6a4a56a2e374e3b110be1Sep 23, 2015.java",23-Sep-15,1
"C:\Users\UCD\Desktop\Reports-senttoMel\After_stage_transfer\Evolution\Recipient\SinglePlayer\dfdfbaecadfa49e9624ff7c2ced9c5694daecc7aSep 24, 2015.java",24-Sep-15,1
"C:\Users\UCD\Desktop\Reports-senttoMel\After_stage_transfer\Evolution\Recipient\SinglePlayer\fa0b1c1cfde94e0302b9af9c38d4cb6c6e47325dSep 25, 2015.java",25-Sep-15,0.833333333
"C:\Users\UCD\Desktop\Reports-senttoMel\After_stage_transfer\Evolution\Recipient\SinglePlayer\62685eb251aea84c3927c9904fc6536742be9d35Sep 26, 2015.java",26-Sep-15,0.75
"C:\Users\UCD\Desktop\Reports-senttoMel\After_stage_transfer\Evolution\Recipient\SinglePlayer\b23b9ea8c430fb539f7636dd8ba66f1e23ec7cc8Sep 26, 2015.java",26-Sep-15,0.765625
"C:\Users\UCD\Desktop\Reports-senttoMel\After_stage_transfer\Evolution\Recipient\SinglePlayer\babf16730c092cc0ed60cb957d2fec980ce94463Sep 27, 2015.java",27-Sep-15,0.7625
"C:\Users\UCD\Desktop\Reports-senttoMel\After_stage_transfer\Evolution\Recipient\SinglePlayer\5c11c1b3a06eaee73a188d607af4242bd2d34be4Sep 28, 2015.java",28-Sep-15,0.7625
"C:\Users\UCD\Desktop\Reports-senttoMel\After_stage_transfer\Evolution\Recipient\SinglePlayer\cb72e953c539fa0d49ad784054b91b5c105667c0Sep 30, 2015.java",30-Sep-15,0.761904762
"C:\Users\UCD\Desktop\Reports-senttoMel\After_stage_transfer\Evolution\Recipient\SinglePlayer\6b572033f9a7d0c3206dc75ae28a1cab83db6d9fOct 1, 2015.java",01-Oct-15,0.805194805
"C:\Users\UCD\Desktop\Reports-senttoMel\After_stage_transfer\Evolution\Recipient\SinglePlayer\f639d41f18e543a80446255e6b38e370ed93c66bOct 2, 2015.java",02-Oct-15,0.805194805
"C:\Users\UCD\Desktop\Reports-senttoMel\After_stage_transfer\Evolution\Recipient\SinglePlayer\4a8806405fad5dbaf7bb020429d6601d0cc19b5cOct 3, 2015.java",03-Oct-15,0.805194805
