,Time Stamp,Non-Recipient(showPassImages.java)
"C:\Users\UCD\Desktop\Reports-senttoMel\After_stage_transfer\Evolution\Non-recipient\showPassImages\db96482188a5d35d5e34a38bf7679eea9d2ae01bMay 16, 2017.java",16-May-17,1
"C:\Users\UCD\Desktop\Reports-senttoMel\After_stage_transfer\Evolution\Non-recipient\showPassImages\d429a04814e939a3c208495422b0ce2f3d6dee3fJun 7, 2017.java",07-Jun-17,1
"C:\Users\UCD\Desktop\Reports-senttoMel\After_stage_transfer\Evolution\Non-recipient\showPassImages\26b35aaa3d7e45135b555c11d32e0117e38977aaJun 12, 2017.java",12-Jun-17,0.333333333
"C:\Users\UCD\Desktop\Reports-senttoMel\After_stage_transfer\Evolution\Non-recipient\showPassImages\cf34e1711392f45530dd80dec579f5e1d24c6983Jun 15, 2017.java",15-Jun-17,0.333333333
"C:\Users\UCD\Desktop\Reports-senttoMel\After_stage_transfer\Evolution\Non-recipient\showPassImages\e9768e288de4a68ef150de542c81ac25792da250Jun 25, 2017.java",25-Jun-17,0.333333333
