,Time Stamp,Non-Recipient(JavassistProxyTransformer.java)
"C:\Users\UCD\Desktop\Reports-senttoMel\After_stage_transfer\Evolution\Non-recipient\JavassistProxyTransformer\33b0060de91d28ccb145c83f5d6d3c2d1652ee22Nov 9, 2014.java",09-Nov-14,0.833333333
"C:\Users\UCD\Desktop\Reports-senttoMel\After_stage_transfer\Evolution\Non-recipient\JavassistProxyTransformer\eb61ccbbc5912000bd4347a850234cf2ef5a2c38Nov 9, 2014.java",09-Nov-14,0.833333333
"C:\Users\UCD\Desktop\Reports-senttoMel\After_stage_transfer\Evolution\Non-recipient\JavassistProxyTransformer\d2bc3182d2694ac3381c998b4956823c358ae438Nov 13, 2014.java",13-Nov-14,0.625
"C:\Users\UCD\Desktop\Reports-senttoMel\After_stage_transfer\Evolution\Non-recipient\JavassistProxyTransformer\5ce7112140dc1dbdb561e4f9f8dabaf73fc3bf23Nov 15, 2014.java",15-Nov-14,0.5
"C:\Users\UCD\Desktop\Reports-senttoMel\After_stage_transfer\Evolution\Non-recipient\JavassistProxyTransformer\437aab0967c190866957f63f04230faf06d1da6dNov 19, 2014.java",19-Nov-14,0.5
"C:\Users\UCD\Desktop\Reports-senttoMel\After_stage_transfer\Evolution\Non-recipient\JavassistProxyTransformer\f5cbe77170da0c33fc6cfdda1e9aebbffa190c96Nov 23, 2014.java",23-Nov-14,0.5
"C:\Users\UCD\Desktop\Reports-senttoMel\After_stage_transfer\Evolution\Non-recipient\JavassistProxyTransformer\c10c5187250e9dcef6306e9609a5d33709bb0658Dec 1, 2014.java",01-Dec-14,0.5
