,Time Stamp,Non-Recipient(PebbleProtocol.java)
"C:\Users\UCD\Desktop\Reports-senttoMel\After_stage_transfer\Evolution\Non-recipient\PebbleProtocol\0746aaa579f4b6f50d8103f7e639377a3076a330Dec 1, 2016.java",01-Dec-16,0.084558824
"C:\Users\UCD\Desktop\Reports-senttoMel\After_stage_transfer\Evolution\Non-recipient\PebbleProtocol\a691cd0ff73b53117200ede69ae8a5004d39b314Dec 4, 2016.java",04-Dec-16,0.08428446
"C:\Users\UCD\Desktop\Reports-senttoMel\After_stage_transfer\Evolution\Non-recipient\PebbleProtocol\013029443b2164c6a8256529478d60bef1866a73Dec 4, 2016.java",04-Dec-16,0.083910035
"C:\Users\UCD\Desktop\Reports-senttoMel\After_stage_transfer\Evolution\Non-recipient\PebbleProtocol\313499abd43776f86a9391dcfe7ec1f3b39e5ddcDec 8, 2016.java",08-Dec-16,0.083546462
"C:\Users\UCD\Desktop\Reports-senttoMel\After_stage_transfer\Evolution\Non-recipient\PebbleProtocol\2d0489960e6803f49edf80cf0090736e6805769eDec 8, 2016.java",08-Dec-16,0.083546462
"C:\Users\UCD\Desktop\Reports-senttoMel\After_stage_transfer\Evolution\Non-recipient\PebbleProtocol\efb1cd389b0f9482f8e3e9154c4aafcc4c788f2cDec 9, 2016.java",09-Dec-16,0.083546462
"C:\Users\UCD\Desktop\Reports-senttoMel\After_stage_transfer\Evolution\Non-recipient\PebbleProtocol\17b581022b480ace2f9a872a6827ef78586b9a49Dec 9, 2016.java",09-Dec-16,0.083546462
"C:\Users\UCD\Desktop\Reports-senttoMel\After_stage_transfer\Evolution\Non-recipient\PebbleProtocol\34296c021fda2713fdca12cdd301f151fe66070eDec 9, 2016.java",09-Dec-16,0.083546462
"C:\Users\UCD\Desktop\Reports-senttoMel\After_stage_transfer\Evolution\Non-recipient\PebbleProtocol\0e1287e38261efe83cdcc0d219d5f79a3f4ed174Dec 9, 2016.java",09-Dec-16,0.083546462
"C:\Users\UCD\Desktop\Reports-senttoMel\After_stage_transfer\Evolution\Non-recipient\PebbleProtocol\a0e21d7c6daa6e69d4f570a631558c55a7808dfcDec 9, 2016.java",09-Dec-16,0.083546462
"C:\Users\UCD\Desktop\Reports-senttoMel\After_stage_transfer\Evolution\Non-recipient\PebbleProtocol\825f2bf2e8fa8b7f97c4e7ad99b1837ebd5a7da4Dec 11, 2016.java",11-Dec-16,0.083546462
"C:\Users\UCD\Desktop\Reports-senttoMel\After_stage_transfer\Evolution\Non-recipient\PebbleProtocol\31122f0b0947bca803ec19e7c580b0b555ea465eDec 11, 2016.java",11-Dec-16,0.083546462
"C:\Users\UCD\Desktop\Reports-senttoMel\After_stage_transfer\Evolution\Non-recipient\PebbleProtocol\240c81ecb4ae8f09c88487a5b29a6faed0d9876dDec 30, 2016.java",30-Dec-16,0.084150327
"C:\Users\UCD\Desktop\Reports-senttoMel\After_stage_transfer\Evolution\Non-recipient\PebbleProtocol\e477d22c88df4bf651f99e60989b974fc5d46259Dec 30, 2016.java",30-Dec-16,0.083803384
"C:\Users\UCD\Desktop\Reports-senttoMel\After_stage_transfer\Evolution\Non-recipient\PebbleProtocol\82c0f35c58fcbbcc0cabe38d52f8a8da86c1626eDec 31, 2016.java",31-Dec-16,0.079147641
"C:\Users\UCD\Desktop\Reports-senttoMel\After_stage_transfer\Evolution\Non-recipient\PebbleProtocol\7930b7da752025eeb81c0a534d332968da528f0bDec 31, 2016.java",31-Dec-16,0.079147641
"C:\Users\UCD\Desktop\Reports-senttoMel\After_stage_transfer\Evolution\Non-recipient\PebbleProtocol\4e543d4b3490e26ab0813ebcc0cd7296d7ed88daDec 31, 2016.java",31-Dec-16,0.079147641
"C:\Users\UCD\Desktop\Reports-senttoMel\After_stage_transfer\Evolution\Non-recipient\PebbleProtocol\4631e5bbafde8628533a552492084593e7cfef06Dec 31, 2016.java",31-Dec-16,0.083803384
"C:\Users\UCD\Desktop\Reports-senttoMel\After_stage_transfer\Evolution\Non-recipient\PebbleProtocol\95e6d2c74021ea3f643c15d7b818ef6c8908e2c5Dec 31, 2016.java",31-Dec-16,0.083803384
"C:\Users\UCD\Desktop\Reports-senttoMel\After_stage_transfer\Evolution\Non-recipient\PebbleProtocol\266c6b8817d32483ac892535a9155153a81ce97dDec 31, 2016.java",31-Dec-16,0.079147641
"C:\Users\UCD\Desktop\Reports-senttoMel\After_stage_transfer\Evolution\Non-recipient\PebbleProtocol\f25605f5a177c641f355230606ddc16406d93afdJan 1, 2017.java",01-Jan-17,0.078386606
"C:\Users\UCD\Desktop\Reports-senttoMel\After_stage_transfer\Evolution\Non-recipient\PebbleProtocol\8b551106794c5aef6e8cceef3792bf17906c9a1dJan 1, 2017.java",01-Jan-17,0.078386606
"C:\Users\UCD\Desktop\Reports-senttoMel\After_stage_transfer\Evolution\Non-recipient\PebbleProtocol\1722a6dc47aeb66fe7f1bb10c5cde931279eabb2Jan 1, 2017.java",01-Jan-17,0.079147641
"C:\Users\UCD\Desktop\Reports-senttoMel\After_stage_transfer\Evolution\Non-recipient\PebbleProtocol\507e58922fa9138945b2ef0c2d1fc028798b04acJan 1, 2017.java",01-Jan-17,0.078386606
"C:\Users\UCD\Desktop\Reports-senttoMel\After_stage_transfer\Evolution\Non-recipient\PebbleProtocol\7f50e0d2b7a472f8e1bc85e03287209f646de537Jan 7, 2017.java",07-Jan-17,0.078386606
"C:\Users\UCD\Desktop\Reports-senttoMel\After_stage_transfer\Evolution\Non-recipient\PebbleProtocol\09cc0134dbc3b0ae874f6f9bcb3a930006ea2f0bJan 8, 2017.java",08-Jan-17,0.078386606
"C:\Users\UCD\Desktop\Reports-senttoMel\After_stage_transfer\Evolution\Non-recipient\PebbleProtocol\3644d5e7a64fa38879277998b568757636078cb5Jan 9, 2017.java",09-Jan-17,0.078078078
"C:\Users\UCD\Desktop\Reports-senttoMel\After_stage_transfer\Evolution\Non-recipient\PebbleProtocol\c6999713d25517955fbe5e80027bda5f41401f23Jan 9, 2017.java",09-Jan-17,0.078386606
"C:\Users\UCD\Desktop\Reports-senttoMel\After_stage_transfer\Evolution\Non-recipient\PebbleProtocol\185605211d00d914e6acaf9bd1aa133663a7ea5eJan 10, 2017.java",10-Jan-17,0.078078078
"C:\Users\UCD\Desktop\Reports-senttoMel\After_stage_transfer\Evolution\Non-recipient\PebbleProtocol\0218cee0e12ab988288b3cae410a8137fa9b9eceJan 11, 2017.java",11-Jan-17,0.078078078
"C:\Users\UCD\Desktop\Reports-senttoMel\After_stage_transfer\Evolution\Non-recipient\PebbleProtocol\50cb3c9db38e6cc65f03ebcabadb15545b8a2ad1Jan 11, 2017.java",11-Jan-17,0.078078078
"C:\Users\UCD\Desktop\Reports-senttoMel\After_stage_transfer\Evolution\Non-recipient\PebbleProtocol\38e234552db86c6adf571de8f0072318c32376d6Jan 13, 2017.java",13-Jan-17,0.078078078
"C:\Users\UCD\Desktop\Reports-senttoMel\After_stage_transfer\Evolution\Non-recipient\PebbleProtocol\26a751977e63e391c54c62c21808cffc1980e141Jan 18, 2017.java",18-Jan-17,0.078078078
"C:\Users\UCD\Desktop\Reports-senttoMel\After_stage_transfer\Evolution\Non-recipient\PebbleProtocol\a7a37fd9c8841d0e41879222bd4c13b4020d20abJan 20, 2017.java",20-Jan-17,0.078078078
"C:\Users\UCD\Desktop\Reports-senttoMel\After_stage_transfer\Evolution\Non-recipient\PebbleProtocol\8027b8ac9647966b8e7c3daa56a8acb512323c65Jan 24, 2017.java",24-Jan-17,0.078078078
