,Time Stamp,Recipient(ConstraintsCellEditor.java)
"C:\Users\UCD\Desktop\Reports-senttoMel\After_stage_transfer\Evolution\Recipient\ConstraintsCellEditor\bb7ae4c57f215f302341c07e5bab775639164399Dec 8, 2015.java",08-Dec-15,0.19047619
"C:\Users\UCD\Desktop\Reports-senttoMel\After_stage_transfer\Evolution\Recipient\ConstraintsCellEditor\0ebed26e0cc50705f139fa23c020d3c8c9d0fb88Jan 11, 2016.java",11-Jan-16,0.166666667
"C:\Users\UCD\Desktop\Reports-senttoMel\After_stage_transfer\Evolution\Recipient\ConstraintsCellEditor\951030ebd67ad69bf2f61e04b4490382d3621bb2Feb 25, 2016.java",25-Feb-16,0.166666667
"C:\Users\UCD\Desktop\Reports-senttoMel\After_stage_transfer\Evolution\Recipient\ConstraintsCellEditor\4e81f590d0dbb50747db97a619a60823cbce6bdcFeb 25, 2016.java",25-Feb-16,0.071428571
"C:\Users\UCD\Desktop\Reports-senttoMel\After_stage_transfer\Evolution\Recipient\ConstraintsCellEditor\455f6515264b78d6057f64a28a9e26e6f684d60cMar 28, 2016.java",28-Mar-16,0.071428571
"C:\Users\UCD\Desktop\Reports-senttoMel\After_stage_transfer\Evolution\Recipient\ConstraintsCellEditor\2fbe82b2b5b5b8bafc739e3831fbb7de2864b600Mar 30, 2016.java",30-Mar-16,0.071428571
"C:\Users\UCD\Desktop\Reports-senttoMel\After_stage_transfer\Evolution\Recipient\ConstraintsCellEditor\0320e3afb21f8e31145d2f7fdbb6d4abaadbf0f6Jul 5, 2016.java",05-Jul-16,0.071428571
"C:\Users\UCD\Desktop\Reports-senttoMel\After_stage_transfer\Evolution\Recipient\ConstraintsCellEditor\7d7ae5452de2f0ca809d4145db6aba1a7925edfaJul 7, 2016.java",07-Jul-16,0.071428571
