,Time Stamp,Recipient(MMD_COLOR4.java)
"C:\Users\UCD\Desktop\Reports-senttoMel\After_stage_transfer\Evolution\Recipient\MMD_COLOR4\6fda6d1d3c7837f07f4f7dbc3b07a74fbd977ba1Aug 12, 2014.java",12-Aug-14,0.277777778
"C:\Users\UCD\Desktop\Reports-senttoMel\After_stage_transfer\Evolution\Recipient\MMD_COLOR4\c18f1627f288c51ab72f8d48aa6a7f9eda7548ecAug 15, 2014.java",15-Aug-14,0.5
"C:\Users\UCD\Desktop\Reports-senttoMel\After_stage_transfer\Evolution\Recipient\MMD_COLOR4\758a92903e756627613da45ab8b8dbfa7eb817b1Aug 15, 2014.java",15-Aug-14,1
"C:\Users\UCD\Desktop\Reports-senttoMel\After_stage_transfer\Evolution\Recipient\MMD_COLOR4\875d6648bd7e6914bf6935ea5fea18acc30736e6Aug 15, 2014.java",15-Aug-14,0.5
"C:\Users\UCD\Desktop\Reports-senttoMel\After_stage_transfer\Evolution\Recipient\MMD_COLOR4\942723c4e4bed2219b8e7f3886f26f5d378e8474Aug 15, 2014.java",15-Aug-14,0.333333333
"C:\Users\UCD\Desktop\Reports-senttoMel\After_stage_transfer\Evolution\Recipient\MMD_COLOR4\327a4ea674a853fbc1bee8c15862d00def87fbfaAug 15, 2014.java",15-Aug-14,0.333333333
"C:\Users\UCD\Desktop\Reports-senttoMel\After_stage_transfer\Evolution\Recipient\MMD_COLOR4\e1d7ce35230052ec10ae041fc95ecb84ace53e0cAug 16, 2014.java",16-Aug-14,0.333333333
