,Time Stamp,Recipient(CompanyDAOImpl.java)
"C:\Users\UCD\Desktop\Reports-senttoMel\After_stage_transfer\Evolution\Recipient\CompanyDAOImpl\0eb7d2eda04fcf6509a377727fb090155e1601a6Oct 30, 2015.java",30-Oct-15,0.244444444
"C:\Users\UCD\Desktop\Reports-senttoMel\After_stage_transfer\Evolution\Recipient\CompanyDAOImpl\a9597b021b2279b1e683964fb2f4c9a44520269eDec 2, 2015.java",02-Dec-15,0.181818182
"C:\Users\UCD\Desktop\Reports-senttoMel\After_stage_transfer\Evolution\Recipient\CompanyDAOImpl\ad76efa4f93f0e5d7a86b1cb5f4498cc3d23c879Dec 9, 2015.java",09-Dec-15,0.151515152
"C:\Users\UCD\Desktop\Reports-senttoMel\After_stage_transfer\Evolution\Recipient\CompanyDAOImpl\2811fbf61ae8a1be0d02ffc832359cae67ac6f6fDec 15, 2015.java",15-Dec-15,0.140625
"C:\Users\UCD\Desktop\Reports-senttoMel\After_stage_transfer\Evolution\Recipient\CompanyDAOImpl\b0a87f62f318120ad4700969d6d385f582023a83Dec 15, 2015.java",15-Dec-15,0.138888889
