,Time Stamp,Non-Recipient(UserPane.java)
"C:\Users\UCD\Desktop\Reports-senttoMel\After_stage_transfer\Evolution\Non-recipient\UserPane\f43eae3d4ca3d9a27fe08c3442b1c466b7199da3Jun 15, 2015.java",15-Jun-15,0
"C:\Users\UCD\Desktop\Reports-senttoMel\After_stage_transfer\Evolution\Non-recipient\UserPane\3f73b3a9b7f3613686becaa9680c759df0eafa71Jun 16, 2015.java",16-Jun-15,0
"C:\Users\UCD\Desktop\Reports-senttoMel\After_stage_transfer\Evolution\Non-recipient\UserPane\c87233217dc7ad06f381075db90268f64d017c99Jun 16, 2015.java",16-Jun-15,1
"C:\Users\UCD\Desktop\Reports-senttoMel\After_stage_transfer\Evolution\Non-recipient\UserPane\4fef475433dbfef6fea0125f4c6695d9e58edb07Jun 17, 2015.java",17-Jun-15,1.015384615
"C:\Users\UCD\Desktop\Reports-senttoMel\After_stage_transfer\Evolution\Non-recipient\UserPane\37bddcd23d8b5e2179cbbf23d1c88dcf06acc8d3Jun 17, 2015.java",17-Jun-15,1.009259259
"C:\Users\UCD\Desktop\Reports-senttoMel\After_stage_transfer\Evolution\Non-recipient\UserPane\8ff282ecc3233a36ee0ef6cbb086c465a6c3c2f9Jun 17, 2015.java",17-Jun-15,1.015384615
"C:\Users\UCD\Desktop\Reports-senttoMel\After_stage_transfer\Evolution\Non-recipient\UserPane\3037b2aaf99f1bfaac7f1cce76bf30746c45afb8Jun 18, 2015.java",18-Jun-15,0.996296296
"C:\Users\UCD\Desktop\Reports-senttoMel\After_stage_transfer\Evolution\Non-recipient\UserPane\955afc188d9c4c52f6c53f5457c0b5c73824dc04Jun 19, 2015.java",19-Jun-15,0.988888889
"C:\Users\UCD\Desktop\Reports-senttoMel\After_stage_transfer\Evolution\Non-recipient\UserPane\f26527332f0bd48a9ec2814d3d723229d20ebdbdJun 21, 2015.java",21-Jun-15,0.988888889
"C:\Users\UCD\Desktop\Reports-senttoMel\After_stage_transfer\Evolution\Non-recipient\UserPane\ca9c252fcb64ebf46cad31e71c0645d64925fabcJun 22, 2015.java",22-Jun-15,0.990196078
"C:\Users\UCD\Desktop\Reports-senttoMel\After_stage_transfer\Evolution\Non-recipient\UserPane\2a7fc5001e30b0a4e756558ca4e70f193e4e8af7Jun 23, 2015.java",23-Jun-15,0.985380117
"C:\Users\UCD\Desktop\Reports-senttoMel\After_stage_transfer\Evolution\Non-recipient\UserPane\f1f568b48481effc745de8103b3ce4cf5b8a8961Jun 24, 2015.java",24-Jun-15,0.99122807
"C:\Users\UCD\Desktop\Reports-senttoMel\After_stage_transfer\Evolution\Non-recipient\UserPane\781b47bb0967b6a1d6f59ca78182dd7085a3fc5aJun 28, 2015.java",28-Jun-15,0.994708995
"C:\Users\UCD\Desktop\Reports-senttoMel\After_stage_transfer\Evolution\Non-recipient\UserPane\d9a3bd10ce6dddd9c829decb40894156ef7ba174Jun 29, 2015.java",29-Jun-15,0.992063492
"C:\Users\UCD\Desktop\Reports-senttoMel\After_stage_transfer\Evolution\Non-recipient\UserPane\eecdf8c438820d09eaab4386c4c58bc091d89f22Jul 8, 2015.java",08-Jul-15,0.992063492
"C:\Users\UCD\Desktop\Reports-senttoMel\After_stage_transfer\Evolution\Non-recipient\UserPane\959fb0e03119728b56a4f2d1433bdb66d144069eJul 11, 2015.java",11-Jul-15,0.992063492
"C:\Users\UCD\Desktop\Reports-senttoMel\After_stage_transfer\Evolution\Non-recipient\UserPane\cece98151d75f2c94d9d9a69a80e725c92bab886Jul 13, 2015.java",13-Jul-15,0.992063492
"C:\Users\UCD\Desktop\Reports-senttoMel\After_stage_transfer\Evolution\Non-recipient\UserPane\cd2d5b8a8734314e398c473623cfdcea591b3d9aSep 21, 2015.java",21-Sep-15,0.984962406
"C:\Users\UCD\Desktop\Reports-senttoMel\After_stage_transfer\Evolution\Non-recipient\UserPane\ec4f8b0bbde85aabe29a596b8e3d4a2478d76b33Sep 22, 2015.java",22-Sep-15,0.987468672
"C:\Users\UCD\Desktop\Reports-senttoMel\After_stage_transfer\Evolution\Non-recipient\UserPane\fb1d021889585e0f6ae4fcfb7c2a3bb3167fdabdSep 22, 2015.java",22-Sep-15,0.984962406
"C:\Users\UCD\Desktop\Reports-senttoMel\After_stage_transfer\Evolution\Non-recipient\UserPane\34cffe8d4f6377dd3fb6e62cde461d6117c606abFeb 22, 2016.java",22-Feb-16,0.987468672
"C:\Users\UCD\Desktop\Reports-senttoMel\After_stage_transfer\Evolution\Non-recipient\UserPane\40eef5c64e2125dc15948f3c740c4b52949caf3aJun 1, 2016.java",01-Jun-16,0.987468672
"C:\Users\UCD\Desktop\Reports-senttoMel\After_stage_transfer\Evolution\Non-recipient\UserPane\bc4d39390bc9df22d2ad435c691b5409bae49676Nov 1, 2016.java",01-Nov-16,0.987468672
"C:\Users\UCD\Desktop\Reports-senttoMel\After_stage_transfer\Evolution\Non-recipient\UserPane\2328e9c8cb23afa495641d1a95e5ee57edd0a668Nov 4, 2016.java",04-Nov-16,0.987468672
"C:\Users\UCD\Desktop\Reports-senttoMel\After_stage_transfer\Evolution\Non-recipient\UserPane\58629879e311bd2f21e9ec086778bdec00fcf9b1Nov 4, 2016.java",04-Nov-16,0.987468672
"C:\Users\UCD\Desktop\Reports-senttoMel\After_stage_transfer\Evolution\Non-recipient\UserPane\8bd74b456b1a83895273145740f7e0790d6c9f89Jan 14, 2017.java",14-Jan-17,0.987468672
"C:\Users\UCD\Desktop\Reports-senttoMel\After_stage_transfer\Evolution\Non-recipient\UserPane\d25823ff44a79100a7ef2a7e530da2d625b137d7Jul 27, 2019.java",27-Jul-19,0.987468672
