"C:\Users\UCD\Desktop\Reports-senttoMel\After_stage_transfer\Evolution\Non-recipient\MainActivity\d828eba2900434d2297c9f2ad6176b78f3d9334cMar 5, 2015.java",05-Mar-15,0.923076923
"C:\Users\UCD\Desktop\Reports-senttoMel\After_stage_transfer\Evolution\Non-recipient\MainActivity\962546f9003d383bab900d0ab35e81c1f020e872Mar 16, 2015.java",16-Mar-15,0.923076923
"C:\Users\UCD\Desktop\Reports-senttoMel\After_stage_transfer\Evolution\Non-recipient\MainActivity\a9e2be4b301d2897163bc29e5af576cb669ed81fMar 17, 2015.java",17-Mar-15,0.923076923
"C:\Users\UCD\Desktop\Reports-senttoMel\After_stage_transfer\Evolution\Non-recipient\MainActivity\30a4a0557c294911c890a4b8a125a1888d72eec8Mar 25, 2015.java",25-Mar-15,0.923076923
"C:\Users\UCD\Desktop\Reports-senttoMel\After_stage_transfer\Evolution\Non-recipient\MainActivity\525aec21c79caa716952937cdee9aab00063f1e1Apr 22, 2015.java",22-Apr-15,0.928571429
"C:\Users\UCD\Desktop\Reports-senttoMel\After_stage_transfer\Evolution\Non-recipient\MainActivity\bb7117455e71c3cd7fc07d1ab230fe561e518597Jun 1, 2015.java",01-Jun-15,0.884615385
"C:\Users\UCD\Desktop\Reports-senttoMel\After_stage_transfer\Evolution\Non-recipient\MainActivity\42cadae11ffbb7f54c15dcc5d004e0c140371708Jun 1, 2015.java",01-Jun-15,0.892857143
"C:\Users\UCD\Desktop\Reports-senttoMel\After_stage_transfer\Evolution\Non-recipient\MainActivity\75eed72c23a179a43e6c89a0781885476e05aa02Jun 1, 2015.java",01-Jun-15,0.892857143
"C:\Users\UCD\Desktop\Reports-senttoMel\After_stage_transfer\Evolution\Non-recipient\MainActivity\a6c319991f7415fdd18f462b91f5ecdce46c001fJun 8, 2015.java",08-Jun-15,0.733333333
"C:\Users\UCD\Desktop\Reports-senttoMel\After_stage_transfer\Evolution\Non-recipient\MainActivity\c1fae5c5f585e42aedb9f69601c4eccdc82ab984Jun 8, 2015.java",08-Jun-15,0.733333333
"C:\Users\UCD\Desktop\Reports-senttoMel\After_stage_transfer\Evolution\Non-recipient\MainActivity\1b5a72be180ffa2f04720dce22562be1c485ec4aJun 10, 2015.java",10-Jun-15,0.8
"C:\Users\UCD\Desktop\Reports-senttoMel\After_stage_transfer\Evolution\Non-recipient\MainActivity\9c069770172d5bb6e93903eec19f1a46798f01c0Jun 11, 2015.java",11-Jun-15,0.666666667
"C:\Users\UCD\Desktop\Reports-senttoMel\After_stage_transfer\Evolution\Non-recipient\MainActivity\04eb2917a8e9c0a91e365fa7fd80391e57b0ad54Jun 11, 2015.java",11-Jun-15,0.8
"C:\Users\UCD\Desktop\Reports-senttoMel\After_stage_transfer\Evolution\Non-recipient\MainActivity\9cfac8e7a6868a2744d61c9b63fbd4883e9cbaa4Jun 17, 2015.java",17-Jun-15,0.666666667
"C:\Users\UCD\Desktop\Reports-senttoMel\After_stage_transfer\Evolution\Non-recipient\MainActivity\44f587871bddcb67a84c1aea72e01068225ec516Jun 29, 2015.java",29-Jun-15,0.666666667
"C:\Users\UCD\Desktop\Reports-senttoMel\After_stage_transfer\Evolution\Non-recipient\MainActivity\db5b190c088e6f8cad4d02e67f50c5280bd4ae38Jul 16, 2015.java",16-Jul-15,0.666666667
"C:\Users\UCD\Desktop\Reports-senttoMel\After_stage_transfer\Evolution\Non-recipient\MainActivity\9177a791df463f69251c163769ea86bee64a76f6Jul 16, 2015.java",16-Jul-15,0.666666667
"C:\Users\UCD\Desktop\Reports-senttoMel\After_stage_transfer\Evolution\Non-recipient\MainActivity\8413a229452d84aab349f50f600cb0cf62716de8Aug 25, 2015.java",25-Aug-15,0.714285714
"C:\Users\UCD\Desktop\Reports-senttoMel\After_stage_transfer\Evolution\Non-recipient\MainActivity\db8d5ba8b6ce32ba937b0d43f893c3f6b1ffe397Aug 25, 2015.java",25-Aug-15,0.714285714
"C:\Users\UCD\Desktop\Reports-senttoMel\After_stage_transfer\Evolution\Non-recipient\MainActivity\04d268d88d7741d7b6fb4d5f6a8760bec85e12f1Aug 26, 2015.java",26-Aug-15,0.714285714
"C:\Users\UCD\Desktop\Reports-senttoMel\After_stage_transfer\Evolution\Non-recipient\MainActivity\dd4e73648dff7f5042462160221860121293275eAug 26, 2015.java",26-Aug-15,0.714285714
"C:\Users\UCD\Desktop\Reports-senttoMel\After_stage_transfer\Evolution\Non-recipient\MainActivity\440d50735c48271c86c9c5e3f0b51d0589a200b8Jan 26, 2016.java",26-Jan-16,0.714285714
"C:\Users\UCD\Desktop\Reports-senttoMel\After_stage_transfer\Evolution\Non-recipient\MainActivity\b4d8e37ae7006ef0c83adb064e56a40df577f28cFeb 3, 2016.java",03-Feb-16,0.714285714
"C:\Users\UCD\Desktop\Reports-senttoMel\After_stage_transfer\Evolution\Non-recipient\MainActivity\99a0fa7084ceed72a68425a54bc0c86493db0084Apr 22, 2016.java",22-Apr-16,1
