,Time Stamp,Non-Recipient(RTExpression.java)
"C:\Users\UCD\Desktop\Reports-senttoMel\After_stage_transfer\Evolution\Non-recipient\RTExpression\91343afbaf59770053842a72c47e0073481d2374Mar 3, 2016.java",03-Mar-16,1.79E-04
"C:\Users\UCD\Desktop\Reports-senttoMel\After_stage_transfer\Evolution\Non-recipient\RTExpression\1b313e4f15554129d637f1dd4e7abab71b277c7dMar 5, 2016.java",05-Mar-16,1.78E-04
"C:\Users\UCD\Desktop\Reports-senttoMel\After_stage_transfer\Evolution\Non-recipient\RTExpression\2a0990496f954cc36d83ac1ea8723054547b3356Mar 8, 2016.java",08-Mar-16,1.80E-04
"C:\Users\UCD\Desktop\Reports-senttoMel\After_stage_transfer\Evolution\Non-recipient\RTExpression\f966c7d264704a7dbc525c656238cc88717d71f7Mar 12, 2016.java",12-Mar-16,1.80E-04
"C:\Users\UCD\Desktop\Reports-senttoMel\After_stage_transfer\Evolution\Non-recipient\RTExpression\b9d4f6341f583ad68f2a34be3a0a9a231418e627Mar 17, 2016.java",17-Mar-16,1.80E-04
"C:\Users\UCD\Desktop\Reports-senttoMel\After_stage_transfer\Evolution\Non-recipient\RTExpression\b280800032794379104895d95df2b668931c7512Mar 21, 2016.java",21-Mar-16,1.78E-04
"C:\Users\UCD\Desktop\Reports-senttoMel\After_stage_transfer\Evolution\Non-recipient\RTExpression\ccb6636a307cb21dbb56881a3faa8c1fe0c32de0Mar 22, 2016.java",22-Mar-16,1.78E-04
"C:\Users\UCD\Desktop\Reports-senttoMel\After_stage_transfer\Evolution\Non-recipient\RTExpression\7beb191115a7932b0e7a6125bba3a94c3afb0ffeMar 23, 2016.java",23-Mar-16,1.78E-04
"C:\Users\UCD\Desktop\Reports-senttoMel\After_stage_transfer\Evolution\Non-recipient\RTExpression\3b4151eda7cedd19e1d89d408a2a6945a996825eMar 25, 2016.java",25-Mar-16,1.78E-04
"C:\Users\UCD\Desktop\Reports-senttoMel\After_stage_transfer\Evolution\Non-recipient\RTExpression\de22ae1fb97b296df9d5cf32afd16693445255a4Mar 26, 2016.java",26-Mar-16,1.78E-04
"C:\Users\UCD\Desktop\Reports-senttoMel\After_stage_transfer\Evolution\Non-recipient\RTExpression\57a5adad89e5d83538012f8e7204ec1a605164c7Mar 27, 2016.java",27-Mar-16,1.78E-04
"C:\Users\UCD\Desktop\Reports-senttoMel\After_stage_transfer\Evolution\Non-recipient\RTExpression\aad7ff51c7259c6f91426d2828e8ab067010cd20Mar 29, 2016.java",29-Mar-16,1.70E-04
"C:\Users\UCD\Desktop\Reports-senttoMel\After_stage_transfer\Evolution\Non-recipient\RTExpression\6712a9e85fc2afab14e72fcf0dd26a0230a41191Apr 3, 2016.java",03-Apr-16,1.70E-04
"C:\Users\UCD\Desktop\Reports-senttoMel\After_stage_transfer\Evolution\Non-recipient\RTExpression\3070e1464b04406d6d0dabf0518ed1a5b53e4714Apr 3, 2016.java",03-Apr-16,1.70E-04
"C:\Users\UCD\Desktop\Reports-senttoMel\After_stage_transfer\Evolution\Non-recipient\RTExpression\854435721d01c298c1dedc531d422f3ffe0884a8Apr 14, 2016.java",14-Apr-16,1.70E-04
"C:\Users\UCD\Desktop\Reports-senttoMel\After_stage_transfer\Evolution\Non-recipient\RTExpression\641d9b1a00afad74a3a1055b67462fe36f21ec5bApr 14, 2016.java",14-Apr-16,1.70E-04
"C:\Users\UCD\Desktop\Reports-senttoMel\After_stage_transfer\Evolution\Non-recipient\RTExpression\f2966685728adbaf7f0ccc9eaf1ff3b812d80b79Apr 15, 2016.java",15-Apr-16,1.70E-04
"C:\Users\UCD\Desktop\Reports-senttoMel\After_stage_transfer\Evolution\Non-recipient\RTExpression\77fbe52a298009df085fd87aa098e9c3e07014e3Apr 18, 2016.java",18-Apr-16,1.70E-04
"C:\Users\UCD\Desktop\Reports-senttoMel\After_stage_transfer\Evolution\Non-recipient\RTExpression\63f5b2214134bcdb75de8fddfadd003fef168599Apr 23, 2016.java",23-Apr-16,1.70E-04
"C:\Users\UCD\Desktop\Reports-senttoMel\After_stage_transfer\Evolution\Non-recipient\RTExpression\be06d76e987f8536f542e7c89e989633d0749a2dApr 24, 2016.java",24-Apr-16,1.70E-04
"C:\Users\UCD\Desktop\Reports-senttoMel\After_stage_transfer\Evolution\Non-recipient\RTExpression\6514a50f7cbdd1681ff56d5788289c749ffedae6Apr 29, 2016.java",29-Apr-16,1.70E-04
"C:\Users\UCD\Desktop\Reports-senttoMel\After_stage_transfer\Evolution\Non-recipient\RTExpression\806676f95f77f2d22643dab989aab7424d85166cMay 9, 2016.java",09-May-16,1.71E-04
"C:\Users\UCD\Desktop\Reports-senttoMel\After_stage_transfer\Evolution\Non-recipient\RTExpression\274a247b1bc06756b54b71c0f0ed59c818f20498May 16, 2016.java",16-May-16,1.71E-04
"C:\Users\UCD\Desktop\Reports-senttoMel\After_stage_transfer\Evolution\Non-recipient\RTExpression\2e43e359194b528f33a749388f6f20e275f45467May 17, 2016.java",17-May-16,1.71E-04
"C:\Users\UCD\Desktop\Reports-senttoMel\After_stage_transfer\Evolution\Non-recipient\RTExpression\d458f9723a7be5f4a6855f66f8b9e05487fb9b46May 28, 2016.java",28-May-16,1.71E-04
"C:\Users\UCD\Desktop\Reports-senttoMel\After_stage_transfer\Evolution\Non-recipient\RTExpression\be6a08766b4208121f1f129f6cb404eb7d2089b1Jun 15, 2016.java",15-Jun-16,1.71E-04
"C:\Users\UCD\Desktop\Reports-senttoMel\After_stage_transfer\Evolution\Non-recipient\RTExpression\d146dbcfefb7ca6e343a6087951d5f308dce26afJul 13, 2016.java",13-Jul-16,1.71E-04
"C:\Users\UCD\Desktop\Reports-senttoMel\After_stage_transfer\Evolution\Non-recipient\RTExpression\7bdfe40a4e445096eda015558f0b300503f7d653Jul 19, 2016.java",19-Jul-16,1.71E-04
"C:\Users\UCD\Desktop\Reports-senttoMel\After_stage_transfer\Evolution\Non-recipient\RTExpression\7a1c79ca7ce9d6f7abd8b7f992c1d4867e570a73Jul 24, 2016.java",24-Jul-16,1.70E-04
"C:\Users\UCD\Desktop\Reports-senttoMel\After_stage_transfer\Evolution\Non-recipient\RTExpression\c9b51274d958e0731644e256b878bdf0bce07187Jul 22, 2017.java",22-Jul-17,2.57E-04
"C:\Users\UCD\Desktop\Reports-senttoMel\After_stage_transfer\Evolution\Non-recipient\RTExpression\82adfad7a0419b0481e21b85d2938c5145542c78Jul 23, 2017.java",23-Jul-17,2.60E-04
"C:\Users\UCD\Desktop\Reports-senttoMel\After_stage_transfer\Evolution\Non-recipient\RTExpression\804369f17c1d687c00f4b858757e140310c1fe43Jul 24, 2017.java",24-Jul-17,2.60E-04
"C:\Users\UCD\Desktop\Reports-senttoMel\After_stage_transfer\Evolution\Non-recipient\RTExpression\167e67b021ef5037cfc1053c34daefe0190f185fAug 1, 2017.java",01-Aug-17,2.45E-04
"C:\Users\UCD\Desktop\Reports-senttoMel\After_stage_transfer\Evolution\Non-recipient\RTExpression\fe73a067a39c0d4d011102e85c3799493044e50cAug 2, 2017.java",02-Aug-17,2.45E-04
"C:\Users\UCD\Desktop\Reports-senttoMel\After_stage_transfer\Evolution\Non-recipient\RTExpression\ca419d02adc7a71a3efcb5d5703f9da33a572ca4Oct 4, 2017.java",04-Oct-17,2.45E-04
