,Time Stamp,Non-Recipient(EstimationStartPage.java)
"C:\Users\UCD\Desktop\Reports-senttoMel\After_stage_transfer\Evolution\Non-recipient\EstimationStartPage\54ac4b1230d4ac7de2e61ddff72a58c85d38da16Apr 5, 2015.java",05-Apr-15,0.06031746
"C:\Users\UCD\Desktop\Reports-senttoMel\After_stage_transfer\Evolution\Non-recipient\EstimationStartPage\c9ecc881931f69a40e9344a52c87e03afb401d45Apr 6, 2015.java",06-Apr-15,0.06031746
"C:\Users\UCD\Desktop\Reports-senttoMel\After_stage_transfer\Evolution\Non-recipient\EstimationStartPage\6eb834e6840b4b196accbc4b4c908c056433df12Apr 7, 2015.java",07-Apr-15,0.037878788
"C:\Users\UCD\Desktop\Reports-senttoMel\After_stage_transfer\Evolution\Non-recipient\EstimationStartPage\d5b4a49864fffeca4d87c0c0c408e4321f4e2ac7Apr 7, 2015.java",07-Apr-15,0.037878788
"C:\Users\UCD\Desktop\Reports-senttoMel\After_stage_transfer\Evolution\Non-recipient\EstimationStartPage\8e0507e2d86dce39f341010fa0950bf4825bf564Apr 10, 2015.java",10-Apr-15,0.037878788
"C:\Users\UCD\Desktop\Reports-senttoMel\After_stage_transfer\Evolution\Non-recipient\EstimationStartPage\232735fe189dd41149969827e7781767c0cfd561Apr 15, 2015.java",15-Apr-15,0.037878788
"C:\Users\UCD\Desktop\Reports-senttoMel\After_stage_transfer\Evolution\Non-recipient\EstimationStartPage\5f78452763b0572cd4b66f4329db1d9067a007d8Apr 19, 2015.java",19-Apr-15,0.033670034
"C:\Users\UCD\Desktop\Reports-senttoMel\After_stage_transfer\Evolution\Non-recipient\EstimationStartPage\e5acb05fe942411889bf141268c534e5e2ad88ccApr 25, 2015.java",25-Apr-15,0.033670034
"C:\Users\UCD\Desktop\Reports-senttoMel\After_stage_transfer\Evolution\Non-recipient\EstimationStartPage\ddfaa96166d38fee1fb50337dd2bd1c1a4966e93Apr 29, 2015.java",29-Apr-15,0.069444444
"C:\Users\UCD\Desktop\Reports-senttoMel\After_stage_transfer\Evolution\Non-recipient\EstimationStartPage\ff26f98cabde7e107f08a1a9f9a55f564b31b119Apr 29, 2015.java",29-Apr-15,0.049382716
"C:\Users\UCD\Desktop\Reports-senttoMel\After_stage_transfer\Evolution\Non-recipient\EstimationStartPage\924685f03cb32dad527735d7802400bd2c009f95Apr 29, 2015.java",29-Apr-15,0.069444444
"C:\Users\UCD\Desktop\Reports-senttoMel\After_stage_transfer\Evolution\Non-recipient\EstimationStartPage\e2f3dcb71b29ebfcb4a4527988ce853e3506de94Apr 29, 2015.java",29-Apr-15,0.049382716
"C:\Users\UCD\Desktop\Reports-senttoMel\After_stage_transfer\Evolution\Non-recipient\EstimationStartPage\3c698a541314a56bfaef862a857dfe140e4b816aApr 29, 2015.java",29-Apr-15,0.061728395
"C:\Users\UCD\Desktop\Reports-senttoMel\After_stage_transfer\Evolution\Non-recipient\EstimationStartPage\a5d8647b04a893a3d4431f105fa30b890f3202fcApr 29, 2015.java",29-Apr-15,0.049382716
"C:\Users\UCD\Desktop\Reports-senttoMel\After_stage_transfer\Evolution\Non-recipient\EstimationStartPage\d4a89e30be46ec81423d331170c5aa453a9f4c6dMay 1, 2015.java",01-May-15,0.069444444
