,Time Stamp,Non-Recipient(MikuMikuGame.java)
"C:\Users\UCD\Desktop\Reports-senttoMel\After_stage_transfer\Evolution\Non-recipient\MikuMikuGame\d6f58a0608b075678711efdb37201632094a9813Aug 14, 2014.java",14-Aug-14,0.865384615
"C:\Users\UCD\Desktop\Reports-senttoMel\After_stage_transfer\Evolution\Non-recipient\MikuMikuGame\7d40b414dee113e67214fe285453d81401281b7fAug 15, 2014.java",15-Aug-14,0.875
"C:\Users\UCD\Desktop\Reports-senttoMel\After_stage_transfer\Evolution\Non-recipient\MikuMikuGame\a480b35ee4e756ab9af99f82b4b8a292e961ec57Aug 15, 2014.java",15-Aug-14,0.875
"C:\Users\UCD\Desktop\Reports-senttoMel\After_stage_transfer\Evolution\Non-recipient\MikuMikuGame\875d6648bd7e6914bf6935ea5fea18acc30736e6Aug 15, 2014.java",15-Aug-14,0.875
"C:\Users\UCD\Desktop\Reports-senttoMel\After_stage_transfer\Evolution\Non-recipient\MikuMikuGame\c18f1627f288c51ab72f8d48aa6a7f9eda7548ecAug 15, 2014.java",15-Aug-14,0.875
"C:\Users\UCD\Desktop\Reports-senttoMel\After_stage_transfer\Evolution\Non-recipient\MikuMikuGame\758a92903e756627613da45ab8b8dbfa7eb817b1Aug 15, 2014.java",15-Aug-14,0.875
"C:\Users\UCD\Desktop\Reports-senttoMel\After_stage_transfer\Evolution\Non-recipient\MikuMikuGame\f3fff28b9fb4c29003e8a97d4a5c190c4cdfc0e4Aug 16, 2014.java",16-Aug-14,0.855769231
"C:\Users\UCD\Desktop\Reports-senttoMel\After_stage_transfer\Evolution\Non-recipient\MikuMikuGame\7c201aa92ca682d14557e7563c1c7e38551e9a21Aug 16, 2014.java",16-Aug-14,0.855769231
"C:\Users\UCD\Desktop\Reports-senttoMel\After_stage_transfer\Evolution\Non-recipient\MikuMikuGame\2ea7988cdfeb5842b22955f173d438cf20facf80Aug 16, 2014.java",16-Aug-14,0.875
