,Time Stamp,Non-Recipient(MappingsGenerator.java)
"C:\Users\UCD\Desktop\Reports-senttoMel\After_stage_transfer\Evolution\Non-recipient\MappingsGenerator\e323f5fb926a758d048bbaa89c3574b436183900Feb 21, 2013.java",21-Feb-13,0.09704142
"C:\Users\UCD\Desktop\Reports-senttoMel\After_stage_transfer\Evolution\Non-recipient\MappingsGenerator\957d30ca6b45559ff756bb7764674e675461c312Feb 25, 2013.java",25-Feb-13,0.097633136
"C:\Users\UCD\Desktop\Reports-senttoMel\After_stage_transfer\Evolution\Non-recipient\MappingsGenerator\43935a4279e106c17b51976ff9659e5f7d400aecFeb 26, 2013.java",26-Feb-13,0.096754808
"C:\Users\UCD\Desktop\Reports-senttoMel\After_stage_transfer\Evolution\Non-recipient\MappingsGenerator\50f325268c1b443e0eacca9b05b7b6c5327c9bafMar 1, 2013.java",01-Mar-13,0.096754808
"C:\Users\UCD\Desktop\Reports-senttoMel\After_stage_transfer\Evolution\Non-recipient\MappingsGenerator\520f378b2cc3299f54efc817393eed700f3b0417Mar 4, 2013.java",04-Mar-13,0.096754808
"C:\Users\UCD\Desktop\Reports-senttoMel\After_stage_transfer\Evolution\Non-recipient\MappingsGenerator\f4b81e1fca751c2c59c29b651331eef39340ea4bMar 8, 2013.java",08-Mar-13,0.088744589
"C:\Users\UCD\Desktop\Reports-senttoMel\After_stage_transfer\Evolution\Non-recipient\MappingsGenerator\5eee03b8a012c44b96af721e7a1267999cb9da37Mar 11, 2013.java",11-Mar-13,0.088744589
"C:\Users\UCD\Desktop\Reports-senttoMel\After_stage_transfer\Evolution\Non-recipient\MappingsGenerator\66db02373bc9a051dfc899dff774fa67f8c4d126Mar 20, 2013.java",20-Mar-13,0.088744589
"C:\Users\UCD\Desktop\Reports-senttoMel\After_stage_transfer\Evolution\Non-recipient\MappingsGenerator\a591e234efc85c5aecb699c7aaab5b3503e7f41fMar 21, 2013.java",21-Mar-13,0.088744589
"C:\Users\UCD\Desktop\Reports-senttoMel\After_stage_transfer\Evolution\Non-recipient\MappingsGenerator\5b9f07152164b4cfea4ffb0940c5f23c9ee671fcMar 21, 2013.java",21-Mar-13,0.088744589
"C:\Users\UCD\Desktop\Reports-senttoMel\After_stage_transfer\Evolution\Non-recipient\MappingsGenerator\e6acbd4a27f8bd082d348d753c6b3a1987fc5609Mar 21, 2013.java",21-Mar-13,0.088744589
"C:\Users\UCD\Desktop\Reports-senttoMel\After_stage_transfer\Evolution\Non-recipient\MappingsGenerator\11e576d1e1261732a06c02e3c1d477967aabd5aeApr 4, 2013.java",04-Apr-13,0.088744589
"C:\Users\UCD\Desktop\Reports-senttoMel\After_stage_transfer\Evolution\Non-recipient\MappingsGenerator\1c99d2fd4da31dd07a15a432a394cc435f124166Apr 17, 2013.java",17-Apr-13,0.088744589
"C:\Users\UCD\Desktop\Reports-senttoMel\After_stage_transfer\Evolution\Non-recipient\MappingsGenerator\c1a3489a816c4ed487da8e264c6dc61aa0c87202Apr 26, 2013.java",26-Apr-13,0.088744589
"C:\Users\UCD\Desktop\Reports-senttoMel\After_stage_transfer\Evolution\Non-recipient\MappingsGenerator\b95c3699d969d4d0fab71cf6a6cfb6f493b698f8May 17, 2013.java",17-May-13,0.084285714
"C:\Users\UCD\Desktop\Reports-senttoMel\After_stage_transfer\Evolution\Non-recipient\MappingsGenerator\228f462503de6ac17d7964e47cf320269feb98b3May 29, 2013.java",29-May-13,0.084285714
"C:\Users\UCD\Desktop\Reports-senttoMel\After_stage_transfer\Evolution\Non-recipient\MappingsGenerator\b2b7ea97a781a637271b8c7d36060bde47cfe8bbMay 30, 2013.java",30-May-13,0.084285714
"C:\Users\UCD\Desktop\Reports-senttoMel\After_stage_transfer\Evolution\Non-recipient\MappingsGenerator\89e3376bf3c55c2257fd57a815b99df38aa7c508Jun 5, 2013.java",05-Jun-13,0.084285714
"C:\Users\UCD\Desktop\Reports-senttoMel\After_stage_transfer\Evolution\Non-recipient\MappingsGenerator\988dda9ec8510fb951228dcdeaf2b18a4b53f10eJun 7, 2013.java",07-Jun-13,0.084285714
"C:\Users\UCD\Desktop\Reports-senttoMel\After_stage_transfer\Evolution\Non-recipient\MappingsGenerator\804ea2a9552afce2dd601a7d6f8d37d3c5ac8372Jun 11, 2013.java",11-Jun-13,0.084285714
"C:\Users\UCD\Desktop\Reports-senttoMel\After_stage_transfer\Evolution\Non-recipient\MappingsGenerator\a70f25984bef18a01260f5deeadd0165f01a2900Jun 12, 2013.java",12-Jun-13,0.084285714
"C:\Users\UCD\Desktop\Reports-senttoMel\After_stage_transfer\Evolution\Non-recipient\MappingsGenerator\fc847d179be40455d59a96d96750cb11899ca90aAug 13, 2013.java",13-Aug-13,0.084285714
"C:\Users\UCD\Desktop\Reports-senttoMel\After_stage_transfer\Evolution\Non-recipient\MappingsGenerator\962a32fd8b91a9fc9e4d260e234c6cffd9984f4eAug 15, 2013.java",15-Aug-13,0.084285714
"C:\Users\UCD\Desktop\Reports-senttoMel\After_stage_transfer\Evolution\Non-recipient\MappingsGenerator\5af075671eeb40f00647acc0e19098d60b8c6772Aug 23, 2013.java",23-Aug-13,0.084285714
"C:\Users\UCD\Desktop\Reports-senttoMel\After_stage_transfer\Evolution\Non-recipient\MappingsGenerator\092087c2f6abad451622100153034387d1e274c3Aug 30, 2013.java",30-Aug-13,0.084285714
"C:\Users\UCD\Desktop\Reports-senttoMel\After_stage_transfer\Evolution\Non-recipient\MappingsGenerator\f9d497bdbf7d6160f1ce1d7493f684290701cedaSep 26, 2013.java",26-Sep-13,0.084285714
"C:\Users\UCD\Desktop\Reports-senttoMel\After_stage_transfer\Evolution\Non-recipient\MappingsGenerator\0b77ce19340bd1d300af4c57f8207613dc72dbd0Oct 4, 2013.java",04-Oct-13,0.084285714
"C:\Users\UCD\Desktop\Reports-senttoMel\After_stage_transfer\Evolution\Non-recipient\MappingsGenerator\089b49f4fedc3a1dc82e9a4bfeaf84b640a98c40Jan 30, 2014.java",30-Jan-14,0.084285714
"C:\Users\UCD\Desktop\Reports-senttoMel\After_stage_transfer\Evolution\Non-recipient\MappingsGenerator\a9b231700b9f0fcee7ea22f048ea45ca57ebfcfeFeb 21, 2014.java",21-Feb-14,0.084285714
"C:\Users\UCD\Desktop\Reports-senttoMel\After_stage_transfer\Evolution\Non-recipient\MappingsGenerator\520c45010a3fdc5350ee781f0fa45dd7fc4a3705Apr 23, 2014.java",23-Apr-14,0.084285714
"C:\Users\UCD\Desktop\Reports-senttoMel\After_stage_transfer\Evolution\Non-recipient\MappingsGenerator\9cfd226f814f5cf576f8a0460f867c8fa4c8e66eMay 1, 2014.java",01-May-14,0.084285714
"C:\Users\UCD\Desktop\Reports-senttoMel\After_stage_transfer\Evolution\Non-recipient\MappingsGenerator\d9f3d286a4c85876983b97a76640101d13b9c950Jul 9, 2014.java",09-Jul-14,0.084285714
"C:\Users\UCD\Desktop\Reports-senttoMel\After_stage_transfer\Evolution\Non-recipient\MappingsGenerator\2593b927622db0bac5837f4400d024e6b8c8d374Mar 28, 2015.java",28-Mar-15,0.084285714
"C:\Users\UCD\Desktop\Reports-senttoMel\After_stage_transfer\Evolution\Non-recipient\MappingsGenerator\475b239a75a6366e8b40b38dc724d590b04f28d3Dec 14, 2015.java",14-Dec-15,0.084285714
"C:\Users\UCD\Desktop\Reports-senttoMel\After_stage_transfer\Evolution\Non-recipient\MappingsGenerator\00bb423281f9efaf3abef631196275dc605fec45Mar 24, 2016.java",24-Mar-16,0.080645161
