,Time Stamp,Recipient(MailServiceImpl.java)
"C:\Users\UCD\Desktop\Reports-senttoMel\After_stage_transfer\Evolution\Recipient\MailServiceImpl\17cc0ab4ef2e452836964e5d491fdd712bf32a82Nov 29, 2016.java",29-Nov-16,0.5
"C:\Users\UCD\Desktop\Reports-senttoMel\After_stage_transfer\Evolution\Recipient\MailServiceImpl\fe59b0b108ea7996536e68d66f7a72891e69eba7Nov 30, 2016.java",30-Nov-16,0.5
"C:\Users\UCD\Desktop\Reports-senttoMel\After_stage_transfer\Evolution\Recipient\MailServiceImpl\42a7c03560647f32f4b3c6754282245270938b82Apr 10, 2017.java",10-Apr-17,0.2
"C:\Users\UCD\Desktop\Reports-senttoMel\After_stage_transfer\Evolution\Recipient\MailServiceImpl\f72d450d6041438dbcc3a9fe51e057ed3b1dd9acApr 20, 2017.java",20-Apr-17,0.2
"C:\Users\UCD\Desktop\Reports-senttoMel\After_stage_transfer\Evolution\Recipient\MailServiceImpl\b51320a55b51e935615357792d50845900c7c7b2Apr 26, 2017.java",26-Apr-17,0.2
"C:\Users\UCD\Desktop\Reports-senttoMel\After_stage_transfer\Evolution\Recipient\MailServiceImpl\c9be06a75ea073eb05d7ffb292c2ec5dd6a035b3May 19, 2017.java",19-May-17,0.2
"C:\Users\UCD\Desktop\Reports-senttoMel\After_stage_transfer\Evolution\Recipient\MailServiceImpl\d3f092b34dca165c833081f9502c038e34ac491fOct 5, 2017.java",05-Oct-17,0.2
