,Time Stamp,Recipient(ParseRun.java)
"C:\Users\UCD\Desktop\Reports-senttoMel\After_stage_transfer\Evolution\Recipient\ParseRun\101076c3ebf5b4e7cd665e916a384c5fd2e71f61Oct 9, 2015.java",09-Oct-15,0.642857143
"C:\Users\UCD\Desktop\Reports-senttoMel\After_stage_transfer\Evolution\Recipient\ParseRun\1a75b85ccd85fc001b66ca347b93e71d5ecb177cNov 22, 2015.java",22-Nov-15,0.642857143
"C:\Users\UCD\Desktop\Reports-senttoMel\After_stage_transfer\Evolution\Recipient\ParseRun\ba192fce5a087f00fa0b533162f22135561065cfNov 30, 2015.java",30-Nov-15,0.642857143
"C:\Users\UCD\Desktop\Reports-senttoMel\After_stage_transfer\Evolution\Recipient\ParseRun\39af62ad784c3d1b2bd3e54658b2749354846780Dec 1, 2015.java",01-Dec-15,0.642857143
"C:\Users\UCD\Desktop\Reports-senttoMel\After_stage_transfer\Evolution\Recipient\ParseRun\48e74dd939ca20c8244f6cc8c58cdeb8e2b1c891Dec 3, 2015.java",03-Dec-15,0.642857143
"C:\Users\UCD\Desktop\Reports-senttoMel\After_stage_transfer\Evolution\Recipient\ParseRun\88aae2a13eb3eb4c01cacaac0c8686e41235e299Dec 4, 2015.java",04-Dec-15,0.642857143
"C:\Users\UCD\Desktop\Reports-senttoMel\After_stage_transfer\Evolution\Recipient\ParseRun\a634df7049497a3e588c27ad6da452da1a74b613Dec 4, 2015.java",04-Dec-15,0.642857143
"C:\Users\UCD\Desktop\Reports-senttoMel\After_stage_transfer\Evolution\Recipient\ParseRun\492e983462a0f4492d8b0b1739f0cfa94ef5995eDec 22, 2015.java",22-Dec-15,0.642857143
"C:\Users\UCD\Desktop\Reports-senttoMel\After_stage_transfer\Evolution\Recipient\ParseRun\14803740d6fe859733a4c744ac6886438ec86182Dec 25, 2015.java",25-Dec-15,0.642857143
"C:\Users\UCD\Desktop\Reports-senttoMel\After_stage_transfer\Evolution\Recipient\ParseRun\807056fefe9a099b445d0af38bb0491dea140b16Dec 26, 2015.java",26-Dec-15,0.6875
"C:\Users\UCD\Desktop\Reports-senttoMel\After_stage_transfer\Evolution\Recipient\ParseRun\c9bde5f1a4e246c46441c87c408db93a18f9f9a5Jan 5, 2016.java",05-Jan-16,0.6875
"C:\Users\UCD\Desktop\Reports-senttoMel\After_stage_transfer\Evolution\Recipient\ParseRun\1cfa2305b3d6db38b9fb4c30869be531b34dcd6dJan 18, 2016.java",18-Jan-16,0.6875
"C:\Users\UCD\Desktop\Reports-senttoMel\After_stage_transfer\Evolution\Recipient\ParseRun\c10d9c68ae128f7fb408df2937a52b84e1ea5cd5Jan 23, 2016.java",23-Jan-16,0.6875
"C:\Users\UCD\Desktop\Reports-senttoMel\After_stage_transfer\Evolution\Recipient\ParseRun\2642a24e349efa56638dcffdd26e2ffcdc2040acJan 25, 2016.java",25-Jan-16,0.5
"C:\Users\UCD\Desktop\Reports-senttoMel\After_stage_transfer\Evolution\Recipient\ParseRun\f9b2fa4400f1373877223bb36493a1f23d9e2b78Feb 5, 2016.java",05-Feb-16,0.5
"C:\Users\UCD\Desktop\Reports-senttoMel\After_stage_transfer\Evolution\Recipient\ParseRun\9c6e3e364056d1de969f21c55d380f3f614906d2Feb 9, 2016.java",09-Feb-16,0.5
"C:\Users\UCD\Desktop\Reports-senttoMel\After_stage_transfer\Evolution\Recipient\ParseRun\a8d847ebdf56c84e37cd818271b68bb70e15d405Feb 13, 2016.java",13-Feb-16,0.5
"C:\Users\UCD\Desktop\Reports-senttoMel\After_stage_transfer\Evolution\Recipient\ParseRun\91343afbaf59770053842a72c47e0073481d2374Mar 3, 2016.java",03-Mar-16,0.444444444
"C:\Users\UCD\Desktop\Reports-senttoMel\After_stage_transfer\Evolution\Recipient\ParseRun\6712a9e85fc2afab14e72fcf0dd26a0230a41191Apr 3, 2016.java",03-Apr-16,0.444444444
"C:\Users\UCD\Desktop\Reports-senttoMel\After_stage_transfer\Evolution\Recipient\ParseRun\d458f9723a7be5f4a6855f66f8b9e05487fb9b46May 28, 2016.java",28-May-16,0.444444444
"C:\Users\UCD\Desktop\Reports-senttoMel\After_stage_transfer\Evolution\Recipient\ParseRun\7a1c79ca7ce9d6f7abd8b7f992c1d4867e570a73Jul 24, 2016.java",24-Jul-16,0.172727273
"C:\Users\UCD\Desktop\Reports-senttoMel\After_stage_transfer\Evolution\Recipient\ParseRun\c9b51274d958e0731644e256b878bdf0bce07187Jul 22, 2017.java",22-Jul-17,0.153846154
"C:\Users\UCD\Desktop\Reports-senttoMel\After_stage_transfer\Evolution\Recipient\ParseRun\82adfad7a0419b0481e21b85d2938c5145542c78Jul 23, 2017.java",23-Jul-17,0.153846154
"C:\Users\UCD\Desktop\Reports-senttoMel\After_stage_transfer\Evolution\Recipient\ParseRun\804369f17c1d687c00f4b858757e140310c1fe43Jul 24, 2017.java",24-Jul-17,0.153846154
"C:\Users\UCD\Desktop\Reports-senttoMel\After_stage_transfer\Evolution\Recipient\ParseRun\920124f184deba35b4c374981ddacac9d21d57b4Jul 24, 2017.java",24-Jul-17,0.142857143
"C:\Users\UCD\Desktop\Reports-senttoMel\After_stage_transfer\Evolution\Recipient\ParseRun\167e67b021ef5037cfc1053c34daefe0190f185fAug 1, 2017.java",01-Aug-17,0.142857143
"C:\Users\UCD\Desktop\Reports-senttoMel\After_stage_transfer\Evolution\Recipient\ParseRun\fe73a067a39c0d4d011102e85c3799493044e50cAug 2, 2017.java",02-Aug-17,0.142857143
