,Time Stamp,Recipient(GBApplication.java)
"C:\Users\UCD\Desktop\Reports-senttoMel\After_stage_transfer\Evolution\Recipient\GBApplication\0704915a882303f0fd23eb8a30c218cc4f1b9323Apr 25, 2016.java",25-Apr-16,0.010837438
"C:\Users\UCD\Desktop\Reports-senttoMel\After_stage_transfer\Evolution\Recipient\GBApplication\0c715a2669a95adf68800e28ced065b07714004dApr 25, 2016.java",25-Apr-16,0.010837438
"C:\Users\UCD\Desktop\Reports-senttoMel\After_stage_transfer\Evolution\Recipient\GBApplication\5e02724c4cdbc10efa9a860f285df89c8da2d381Apr 28, 2016.java",28-Apr-16,0.009605735
"C:\Users\UCD\Desktop\Reports-senttoMel\After_stage_transfer\Evolution\Recipient\GBApplication\64a6b9a936259b9ceab1a957d69c553c42fa9dd6Apr 29, 2016.java",29-Apr-16,0.008285985
"C:\Users\UCD\Desktop\Reports-senttoMel\After_stage_transfer\Evolution\Recipient\GBApplication\b363d08efb03d0c4fc7a097b2ef1423013b09055Apr 29, 2016.java",29-Apr-16,0.008641098
"C:\Users\UCD\Desktop\Reports-senttoMel\After_stage_transfer\Evolution\Recipient\GBApplication\1a353239c45c91e04db7cbe39f6f86429618910aMay 8, 2016.java",08-May-16,0.009605735
"C:\Users\UCD\Desktop\Reports-senttoMel\After_stage_transfer\Evolution\Recipient\GBApplication\8ca821ab8a7a8960be4b8a86e927b64ea54a132aMay 13, 2016.java",13-May-16,0.008459596
"C:\Users\UCD\Desktop\Reports-senttoMel\After_stage_transfer\Evolution\Recipient\GBApplication\2d2df640032bd3511ce7eb5433c62afa83a888a4May 16, 2016.java",16-May-16,0.009005376
"C:\Users\UCD\Desktop\Reports-senttoMel\After_stage_transfer\Evolution\Recipient\GBApplication\40a376bbd08c48cb168740eb10b10e81b742efd4May 16, 2016.java",16-May-16,0.009005376
"C:\Users\UCD\Desktop\Reports-senttoMel\After_stage_transfer\Evolution\Recipient\GBApplication\75703b0deaadce148148e8525e8e4965292a08c0May 16, 2016.java",16-May-16,0.009408602
"C:\Users\UCD\Desktop\Reports-senttoMel\After_stage_transfer\Evolution\Recipient\GBApplication\3e0bc167412fd1e0a4b449a5797ff8b75aeb482bMay 16, 2016.java",16-May-16,0.009005376
"C:\Users\UCD\Desktop\Reports-senttoMel\After_stage_transfer\Evolution\Recipient\GBApplication\8a9162832207253a3a1f7853a3bbd1eaddeeaf82May 19, 2016.java",19-May-16,0.008964646
"C:\Users\UCD\Desktop\Reports-senttoMel\After_stage_transfer\Evolution\Recipient\GBApplication\31eabe960527f5fa853e6e2d880dbfd1556f563eMay 19, 2016.java",19-May-16,0.008718487
"C:\Users\UCD\Desktop\Reports-senttoMel\After_stage_transfer\Evolution\Recipient\GBApplication\0267ddb356e6244e4bb87d0353504fd98d7c2330May 20, 2016.java",20-May-16,0.008531746
"C:\Users\UCD\Desktop\Reports-senttoMel\After_stage_transfer\Evolution\Recipient\GBApplication\d5cca847804841d8eb0f2a47edf6565587ea49b5May 20, 2016.java",20-May-16,0.008718487
"C:\Users\UCD\Desktop\Reports-senttoMel\After_stage_transfer\Evolution\Recipient\GBApplication\400ae2bc3b9914b92a2b5dc6ae2e7848f0f0bc71May 20, 2016.java",20-May-16,0.008718487
"C:\Users\UCD\Desktop\Reports-senttoMel\After_stage_transfer\Evolution\Recipient\GBApplication\fa34cf9a17de6b9c051334c9a2073381085039b1May 20, 2016.java",20-May-16,0.008531746
"C:\Users\UCD\Desktop\Reports-senttoMel\After_stage_transfer\Evolution\Recipient\GBApplication\50b7a02ef2da979476c68e43a54a62e7802584adMay 26, 2016.java",26-May-16,0.010632184
"C:\Users\UCD\Desktop\Reports-senttoMel\After_stage_transfer\Evolution\Recipient\GBApplication\3b87966fe98e1b7df7b19167da82ec831ae31de1Jun 6, 2016.java",06-Jun-16,0.010349462
"C:\Users\UCD\Desktop\Reports-senttoMel\After_stage_transfer\Evolution\Recipient\GBApplication\61957d6cb0722dbdadb0cb2f6d6ee2341bd310bbJun 14, 2016.java",14-Jun-16,0.010349462
"C:\Users\UCD\Desktop\Reports-senttoMel\After_stage_transfer\Evolution\Recipient\GBApplication\233a6155cc8d3b29ecf82fcc730bba8d16c6507bJun 18, 2016.java",18-Jun-16,0.009250474
"C:\Users\UCD\Desktop\Reports-senttoMel\After_stage_transfer\Evolution\Recipient\GBApplication\0596c8038161fe5ce17ba7bf5392a4729be54f9bJun 18, 2016.java",18-Jun-16,0.009250474
"C:\Users\UCD\Desktop\Reports-senttoMel\After_stage_transfer\Evolution\Recipient\GBApplication\2fa166e381105523bacae389f7b976208e6034d0Jun 25, 2016.java",25-Jun-16,0.009250474
"C:\Users\UCD\Desktop\Reports-senttoMel\After_stage_transfer\Evolution\Recipient\GBApplication\f54163faeb84c265eaf37aa6eeb09512d8d5caa2Jul 8, 2016.java",08-Jul-16,0.011424731
"C:\Users\UCD\Desktop\Reports-senttoMel\After_stage_transfer\Evolution\Recipient\GBApplication\4ddbbfdfb02da08b1303c5d0daefaf454ee6be93Aug 14, 2016.java",14-Aug-16,0.011424731
"C:\Users\UCD\Desktop\Reports-senttoMel\After_stage_transfer\Evolution\Recipient\GBApplication\49b8b9ebca7273189f352835a212be4218110376Aug 24, 2016.java",24-Aug-16,0.011424731
"C:\Users\UCD\Desktop\Reports-senttoMel\After_stage_transfer\Evolution\Recipient\GBApplication\5ab40918c05a4baf11f514c69cee4707f599f1ccAug 26, 2016.java",26-Aug-16,0.011424731
"C:\Users\UCD\Desktop\Reports-senttoMel\After_stage_transfer\Evolution\Recipient\GBApplication\8d6e6c8675b98e96969117b78680f7ea2de16610Aug 27, 2016.java",27-Aug-16,0.011132195
"C:\Users\UCD\Desktop\Reports-senttoMel\After_stage_transfer\Evolution\Recipient\GBApplication\840a125c8120d66c6a0dd01266545a565ea913a4Aug 27, 2016.java",27-Aug-16,0.011132195
"C:\Users\UCD\Desktop\Reports-senttoMel\After_stage_transfer\Evolution\Recipient\GBApplication\6340bcff15d5e44b0d1bdfadcddc5d04a531e21eAug 30, 2016.java",30-Aug-16,0.011132195
"C:\Users\UCD\Desktop\Reports-senttoMel\After_stage_transfer\Evolution\Recipient\GBApplication\1e6cb67edd97160f41dc8d8a68efb15c34466a2fAug 31, 2016.java",31-Aug-16,0.011266603
"C:\Users\UCD\Desktop\Reports-senttoMel\After_stage_transfer\Evolution\Recipient\GBApplication\9bebf1d32f2b0449d282d9fcd86dca1a94784ccfNov 24, 2016.java",24-Nov-16,0.010485478
"C:\Users\UCD\Desktop\Reports-senttoMel\After_stage_transfer\Evolution\Recipient\GBApplication\352fc1a030f06de0d770e9dff79dc9d5ad457e02Nov 25, 2016.java",25-Nov-16,0.010485478
"C:\Users\UCD\Desktop\Reports-senttoMel\After_stage_transfer\Evolution\Recipient\GBApplication\ed38e524bfc4d07977e1bed73d29c582f7186cfdDec 7, 2016.java",07-Dec-16,0.010485478
"C:\Users\UCD\Desktop\Reports-senttoMel\After_stage_transfer\Evolution\Recipient\GBApplication\c1abaaa4e0b54b321f35526047caef79d83aa4e2Jan 8, 2017.java",08-Jan-17,0.010380623
