,Time Stamp,Non-Recipient(MapSearchActivity.java)
"C:\Users\UCD\Desktop\Reports-senttoMel\After_stage_transfer\Evolution\Non-recipient\MapSearchActivity\cf2aedc70a29daf8a5617d9935967ea1440d9c82Mar 31, 2017.java",31-Mar-17,0.040775401
"C:\Users\UCD\Desktop\Reports-senttoMel\After_stage_transfer\Evolution\Non-recipient\MapSearchActivity\e055ff71448939a94ee2b01223fea55aaf4fbc9eApr 2, 2017.java",02-Apr-17,0.073593074
"C:\Users\UCD\Desktop\Reports-senttoMel\After_stage_transfer\Evolution\Non-recipient\MapSearchActivity\b6f0dbb87ac0b1c0c4677c0220eefbbd33da2c31Apr 18, 2017.java",18-Apr-17,0.053694843
"C:\Users\UCD\Desktop\Reports-senttoMel\After_stage_transfer\Evolution\Non-recipient\MapSearchActivity\e2f1be2e1c34976664ff0cd678d607baaa8b25c8Apr 19, 2017.java",19-Apr-17,0.091208791
"C:\Users\UCD\Desktop\Reports-senttoMel\After_stage_transfer\Evolution\Non-recipient\MapSearchActivity\d037d09b22a7c2d4d680e40da8e059ccf8bef9f0Apr 20, 2017.java",20-Apr-17,0.088911089
"C:\Users\UCD\Desktop\Reports-senttoMel\After_stage_transfer\Evolution\Non-recipient\MapSearchActivity\76ff239b7fff3910e97d0297ac66f479b8c128f1Apr 21, 2017.java",21-Apr-17,0.09004329
"C:\Users\UCD\Desktop\Reports-senttoMel\After_stage_transfer\Evolution\Non-recipient\MapSearchActivity\e8a7caf7bbccc6277168cdfa8a28b6a0528b0b4fApr 21, 2017.java",21-Apr-17,0.074925075
"C:\Users\UCD\Desktop\Reports-senttoMel\After_stage_transfer\Evolution\Non-recipient\MapSearchActivity\b06d80c9daff8088598a175c47d481cb0e241e63Apr 24, 2017.java",24-Apr-17,0.095238095
"C:\Users\UCD\Desktop\Reports-senttoMel\After_stage_transfer\Evolution\Non-recipient\MapSearchActivity\14f422b475110fa7306fb4461bc70155f155c281Apr 26, 2017.java",26-Apr-17,0.095238095
"C:\Users\UCD\Desktop\Reports-senttoMel\After_stage_transfer\Evolution\Non-recipient\MapSearchActivity\ee091cfabbb3777359699eedf53fb2b529da1ca4Apr 27, 2017.java",27-Apr-17,0.109090909
