,Time Stamp,Non-Recipient(RegionalTask.java)
"C:\Users\UCD\Desktop\Reports-senttoMel\After_stage_transfer\Evolution\Non-recipient\RegionalTask\9083021e19aeeb10fe8e16e7c38b41d51dacd701Jul 17, 2017.java",17-Jul-17,0.02
"C:\Users\UCD\Desktop\Reports-senttoMel\After_stage_transfer\Evolution\Non-recipient\RegionalTask\300b5e08c3965f8a191885e7095ba2c60b4c62e6Jul 22, 2017.java",22-Jul-17,0.02
"C:\Users\UCD\Desktop\Reports-senttoMel\After_stage_transfer\Evolution\Non-recipient\RegionalTask\8f26660dcff88e9e503cd4d84c64ed2d004d68afDec 4, 2017.java",04-Dec-17,0.016666667
"C:\Users\UCD\Desktop\Reports-senttoMel\After_stage_transfer\Evolution\Non-recipient\RegionalTask\c974ff2913c8fcf27cf41448d8a02f44e9456c70Jan 9, 2018.java",09-Jan-18,0.016666667
"C:\Users\UCD\Desktop\Reports-senttoMel\After_stage_transfer\Evolution\Non-recipient\RegionalTask\ab39e299cbc18b60ede01f2546a53ed6d6fbe2b9Jan 9, 2018.java",09-Jan-18,0.016666667
"C:\Users\UCD\Desktop\Reports-senttoMel\After_stage_transfer\Evolution\Non-recipient\RegionalTask\a5f376a125dee6f7261c9e6176bcedd7556604b5Jan 9, 2018.java",09-Jan-18,0.016666667
"C:\Users\UCD\Desktop\Reports-senttoMel\After_stage_transfer\Evolution\Non-recipient\RegionalTask\2895df978293f34b3e7d2d11f0f4a4de56805183Jan 10, 2018.java",10-Jan-18,0.016666667
"C:\Users\UCD\Desktop\Reports-senttoMel\After_stage_transfer\Evolution\Non-recipient\RegionalTask\3f66891c8ce7fe62238452190d22cd703d4020b7Jan 11, 2018.java",11-Jan-18,0
"C:\Users\UCD\Desktop\Reports-senttoMel\After_stage_transfer\Evolution\Non-recipient\RegionalTask\af8da0e65dfe2a766e15673529a1f2eac63b7cfeJan 21, 2018.java",21-Jan-18,0
"C:\Users\UCD\Desktop\Reports-senttoMel\After_stage_transfer\Evolution\Non-recipient\RegionalTask\889146fc60cdf44831689072411cd8723ed3333dMar 21, 2018.java",21-Mar-18,0
"C:\Users\UCD\Desktop\Reports-senttoMel\After_stage_transfer\Evolution\Non-recipient\RegionalTask\e73c67c129254474379dbb07f5ef7e87fb8811ceApr 10, 2018.java",10-Apr-18,0
"C:\Users\UCD\Desktop\Reports-senttoMel\After_stage_transfer\Evolution\Non-recipient\RegionalTask\9c8ae96aec64d5a57c60c4f34b94943d4a82362fOct 29, 2018.java",29-Oct-18,0
