,Time Stamp,Recipient(Server.java)
"C:\Users\UCD\Desktop\Reports-senttoMel\After_stage_transfer\Evolution\Recipient\server\af928ab4e054b4196275dc96d53a2d980ad43c49Mar 14, 2014.java",14-Mar-14,0
"C:\Users\UCD\Desktop\Reports-senttoMel\After_stage_transfer\Evolution\Recipient\server\4ef5adde953acf21e99b5b650861c1803cc00b49Mar 14, 2014.java",14-Mar-14,0
"C:\Users\UCD\Desktop\Reports-senttoMel\After_stage_transfer\Evolution\Recipient\server\8dd7bd154d46db188402ab14736da63098857dc8Mar 17, 2014.java",17-Mar-14,0
"C:\Users\UCD\Desktop\Reports-senttoMel\After_stage_transfer\Evolution\Recipient\server\2fb06dc6fee13f4e70f356ec2ce5f99799a8c071Mar 17, 2014.java",17-Mar-14,0
"C:\Users\UCD\Desktop\Reports-senttoMel\After_stage_transfer\Evolution\Recipient\server\0e678834ae9f1eaea484843cca8756cb7fea7c37Mar 17, 2014.java",17-Mar-14,0
"C:\Users\UCD\Desktop\Reports-senttoMel\After_stage_transfer\Evolution\Recipient\server\e037bf764116f01b4aa3229a7f182ebb10d74a8eMar 17, 2014.java",17-Mar-14,0
"C:\Users\UCD\Desktop\Reports-senttoMel\After_stage_transfer\Evolution\Recipient\server\5ed74321d860fed1d100ae239b7c7fad255ce835Apr 1, 2014.java",01-Apr-14,0.666666667
"C:\Users\UCD\Desktop\Reports-senttoMel\After_stage_transfer\Evolution\Recipient\server\91b5cb43d5ecc905e343d7fec74cf0baca397443Apr 2, 2014.java",02-Apr-14,0.666666667
"C:\Users\UCD\Desktop\Reports-senttoMel\After_stage_transfer\Evolution\Recipient\server\d739286d3fb93871e7c4b534bad1698476b2eed3Apr 5, 2014.java",05-Apr-14,0.666666667
"C:\Users\UCD\Desktop\Reports-senttoMel\After_stage_transfer\Evolution\Recipient\server\232177e7ccdadc9ad517944dd2e97470585e0b06Apr 6, 2014.java",06-Apr-14,0.666666667
"C:\Users\UCD\Desktop\Reports-senttoMel\After_stage_transfer\Evolution\Recipient\server\7ca27e07ecf5362398438ca7f0063f2e865bd996Apr 8, 2014.java",08-Apr-14,0.666666667
